<?xml version="1.0" encoding="UTF-8" standalone="no"?>
<svg
   xmlns:dc="http://purl.org/dc/elements/1.1/"
   xmlns:cc="http://creativecommons.org/ns#"
   xmlns:rdf="http://www.w3.org/1999/02/22-rdf-syntax-ns#"
   xmlns:svg="http://www.w3.org/2000/svg"
   xmlns="http://www.w3.org/2000/svg"
   xmlns:sodipodi="http://sodipodi.sourceforge.net/DTD/sodipodi-0.dtd"
   xmlns:inkscape="http://www.inkscape.org/namespaces/inkscape"
   version="1.1"
   x="0px"
   y="0px"
   width="100px"
   height="100px"
   viewBox="0 0 100 100"
   enable-background="new 0 0 100 100"
   xml:space="preserve"
   id="svg2"
   inkscape:version="0.92.2 2405546, 2018-03-11"
   sodipodi:docname="application-x-sh.svg"
   inkscape:export-filename="C:\Users\wilkie\occam\configuration.png"
   inkscape:export-xdpi="18"
   inkscape:export-ydpi="18"><metadata
   id="metadata122"><rdf:RDF><cc:Work
       rdf:about=""><dc:format>image/svg+xml</dc:format><dc:type
         rdf:resource="http://purl.org/dc/dcmitype/StillImage" /><dc:title></dc:title></cc:Work></rdf:RDF></metadata><defs
   id="defs120" /><sodipodi:namedview
   pagecolor="#ffffff"
   bordercolor="#666666"
   borderopacity="1"
   objecttolerance="10"
   gridtolerance="10"
   guidetolerance="10"
   inkscape:pageopacity="0"
   inkscape:pageshadow="2"
   inkscape:window-width="1920"
   inkscape:window-height="1152"
   id="namedview118"
   showgrid="false"
   inkscape:zoom="3.3693638"
   inkscape:cx="90.23964"
   inkscape:cy="43.135228"
   inkscape:window-x="0"
   inkscape:window-y="20"
   inkscape:window-maximized="1"
   inkscape:current-layer="text5776"
   inkscape:object-nodes="false" />
<path
   style="color:#000000;font-style:normal;font-variant:normal;font-weight:normal;font-stretch:normal;font-size:medium;line-height:normal;font-family:sans-serif;text-indent:0;text-align:start;text-decoration:none;text-decoration-line:none;text-decoration-style:solid;text-decoration-color:#000000;letter-spacing:normal;word-spacing:normal;text-transform:none;writing-mode:lr-tb;direction:ltr;baseline-shift:baseline;text-anchor:start;white-space:normal;clip-rule:nonzero;display:inline;overflow:visible;visibility:visible;opacity:1;isolation:auto;mix-blend-mode:normal;color-interpolation:sRGB;color-interpolation-filters:linearRGB;solid-color:#000000;solid-opacity:1;fill:#2da0b7;fill-opacity:1;fill-rule:nonzero;stroke:none;stroke-width:3.84708214;stroke-linecap:butt;stroke-linejoin:miter;stroke-miterlimit:4;stroke-dasharray:none;stroke-dashoffset:0;stroke-opacity:1;color-rendering:auto;image-rendering:auto;shape-rendering:auto;text-rendering:auto;enable-background:accumulate"
   d="M 32.353516,1.0390625 C 25.446321,7.8584722 18.363873,15.024901 12.439451,20.95117 v 2.054687 h 22.736328 c 0,-7.322265 0,-14.6445297 0,-21.9667945 z m 4.757812,0 v 3.8476563 h 46.601563 c 0.0032,24.7111032 0,65.5166852 0,90.2265622 H 16.287109 c 0,-19.218353 -6.21e-4,-46.849981 0,-70.171875 h -3.847656 v 73.835938 0.183594 h 0.183594 74.753906 0.183594 V 98.777344 1.2226562 1.0390625 H 87.376953 Z M 31.005859,8.3261719 V 18.789062 h -10.46289 z"
   id="rect962-5"
   inkscape:connector-curvature="0"
   sodipodi:nodetypes="ccccccccccccccccccccccccccc" /><g
   aria-label="T"
   style="font-style:normal;font-variant:normal;font-weight:normal;font-stretch:normal;font-size:84.83261871px;line-height:1.25;font-family:inconsolata;-inkscape-font-specification:inconsolata;letter-spacing:0px;word-spacing:0px;fill:#2da0b7;fill-opacity:1;stroke:none;stroke-width:2.12081552"
   id="text5776"><g
     aria-label="$_"
     style="font-style:normal;font-variant:normal;font-weight:normal;font-stretch:normal;font-size:60.20898819px;line-height:1.25;font-family:inconsolata;-inkscape-font-specification:inconsolata;letter-spacing:0px;word-spacing:0px;fill:#2da0b7;fill-opacity:1;stroke:none;stroke-width:3.1923039"
     id="text7776"
     transform="matrix(1.0320656,0,0,1.0320656,-1.3167414,-1.4667904)"><path
       d="m 31.833121,75.975676 q -2.792897,-0.470383 -5.350603,-1.852132 -2.557706,-1.411149 -4.527434,-3.586669 l 3.674865,-5.17421 q 0.587978,0.176394 0.881968,0.55858 0.293989,0.382186 0.52918,0.970164 0.146995,0.440984 0.293989,0.587979 1.08776,1.175956 2.204919,1.910929 1.146558,0.734973 2.587105,1.028963 V 59.659275 q -4.468635,-1.64634 -6.79115,-3.998253 -2.293116,-2.381313 -2.293116,-5.762188 0,-2.204919 1.08776,-4.08645 1.08776,-1.91093 3.057488,-3.233882 1.999126,-1.35235 4.645029,-1.88153 V 37.1985 H 37.8599 q 0.352787,0.146995 0.352787,0.587978 0,0.176394 -0.146995,0.676176 -0.205792,1.028962 -0.205792,1.205355 v 0.940766 q 2.44011,0.499781 4.586231,1.91093 2.146121,1.381749 3.910057,3.52787 l -3.55727,4.498035 q -0.52918,0 -0.793771,-0.293989 -0.235191,-0.323389 -0.440983,-0.911367 -0.176394,-0.529181 -0.323388,-0.764372 -0.646777,-0.734973 -1.64634,-1.35235 -0.970164,-0.617378 -2.028525,-0.881968 v 8.849075 q 4.939018,1.558143 7.320331,3.968854 2.381312,2.381313 2.381312,6.203172 0,2.46951 -1.146558,4.64503 -1.146558,2.146121 -3.26328,3.674865 -2.116722,1.528744 -4.997816,2.116722 v 3.233881 h -6.026779 z m 0.293989,-29.69291 q -1.264153,0.323388 -2.028525,1.175957 -0.734973,0.852569 -0.734973,2.087323 0,1.058362 0.676175,2.028526 0.676175,0.940765 2.087323,1.440547 z m 5.438801,23.783727 q 3.557269,-1.264154 3.557269,-4.321642 0,-2.910493 -3.557269,-4.174646 z"
       style="font-weight:bold;fill:#2da0b7;fill-opacity:1;stroke-width:3.1923039"
       id="path7778"
       inkscape:connector-curvature="0" /><path
       d="m 50.854222,76.857643 h 26.635422 v 5.615194 H 50.854222 Z"
       style="font-weight:bold;fill:#2da0b7;fill-opacity:1;stroke-width:3.1923039"
       id="path7780"
       inkscape:connector-curvature="0" /></g></g></svg>