<?xml version="1.0" encoding="UTF-8" standalone="no"?>
<svg
   xmlns:dc="http://purl.org/dc/elements/1.1/"
   xmlns:cc="http://creativecommons.org/ns#"
   xmlns:rdf="http://www.w3.org/1999/02/22-rdf-syntax-ns#"
   xmlns:svg="http://www.w3.org/2000/svg"
   xmlns="http://www.w3.org/2000/svg"
   xmlns:sodipodi="http://sodipodi.sourceforge.net/DTD/sodipodi-0.dtd"
   xmlns:inkscape="http://www.inkscape.org/namespaces/inkscape"
   version="1.1"
   x="0px"
   y="0px"
   width="100px"
   height="100px"
   viewBox="0 0 100 100"
   enable-background="new 0 0 100 100"
   xml:space="preserve"
   id="svg2"
   inkscape:version="0.91 r13725"
   sodipodi:docname="application-x-iso9660-image.svg"
   inkscape:export-filename="C:\Users\wilkie\occam\configuration.png"
   inkscape:export-xdpi="18"
   inkscape:export-ydpi="18"><metadata
     id="metadata122"><rdf:RDF><cc:Work
         rdf:about=""><dc:format>image/svg+xml</dc:format><dc:type
           rdf:resource="http://purl.org/dc/dcmitype/StillImage" /><dc:title /></cc:Work></rdf:RDF></metadata><defs
     id="defs120" /><sodipodi:namedview
     pagecolor="#ffffff"
     bordercolor="#666666"
     borderopacity="1"
     objecttolerance="10"
     gridtolerance="10"
     guidetolerance="10"
     inkscape:pageopacity="0"
     inkscape:pageshadow="2"
     inkscape:window-width="1920"
     inkscape:window-height="1057"
     id="namedview118"
     showgrid="false"
     inkscape:zoom="6.675088"
     inkscape:cx="15.138458"
     inkscape:cy="59.065641"
     inkscape:window-x="-8"
     inkscape:window-y="1072"
     inkscape:window-maximized="1"
     inkscape:current-layer="svg2"
     inkscape:object-nodes="false" /><path
     style="clip-rule:evenodd;fill:#2da0b7;fill-opacity:1;fill-rule:evenodd"
     d="M 50 1.2226562 C 23.622099 1.2226562 2.2402344 23.059115 2.2402344 49.998047 C 2.2402344 60.722808 5.6378157 70.632103 11.380859 78.683594 L 11.380859 72.810547 A 3.4589955 3.4589955 0 0 1 14.839844 69.351562 L 19.726562 69.351562 A 3.4589955 3.4589955 0 0 1 23.185547 72.810547 L 23.185547 72.828125 C 23.522836 72.409703 23.885939 72.011963 24.298828 71.662109 A 3.3634655 3.3634655 0 0 1 24.308594 71.654297 C 26.438649 69.863114 29.236258 69.115234 32.210938 69.115234 C 33.674784 69.115234 35.108241 69.289656 36.484375 69.650391 C 37.765118 69.983353 39.065165 70.440868 40.390625 71.015625 A 3.3634655 3.3634655 0 0 1 42.3125 73.292969 C 42.387824 73.207967 42.45138 73.114361 42.529297 73.03125 C 45.193059 70.190883 49.09004 68.851562 53.318359 68.851562 C 57.548123 68.851562 61.445969 70.202196 64.080078 73.070312 L 64.083984 73.074219 C 66.720391 75.935404 67.853516 79.888887 67.853516 84.300781 C 67.853516 88.710127 66.70847 92.670643 64.0625 95.537109 C 63.49009 96.157221 62.848252 96.693031 62.167969 97.173828 C 82.649443 91.677769 97.759766 72.643053 97.759766 49.998047 C 97.759766 23.059115 76.374002 1.2226562 50 1.2226562 z M 50.121094 37.949219 C 56.595034 37.949219 61.84375 43.296502 61.84375 49.894531 C 61.84375 56.492581 56.595034 61.84375 50.121094 61.84375 C 43.646986 61.84375 38.400391 56.492581 38.400391 49.894531 C 38.400391 43.296502 43.646986 37.949219 50.121094 37.949219 z M 53.318359 80.109375 C 52.184316 80.109375 52.099681 80.236669 51.792969 80.644531 A 3.5958173 3.5958173 0 0 1 51.785156 80.65625 C 51.485344 81.051747 51.033203 82.186516 51.033203 84.300781 C 51.033203 86.419811 51.485161 87.564199 51.78125 87.958984 C 52.071786 88.346366 52.146759 88.476562 53.287109 88.476562 C 54.440202 88.476564 54.51863 88.341794 54.800781 87.966797 C 55.082932 87.5918 55.539062 86.440434 55.539062 84.300781 C 55.539062 82.1526 55.082422 80.988402 54.800781 80.611328 C 54.519141 80.234254 54.455046 80.109375 53.318359 80.109375 z M 38.962891 80.912109 A 3.3634655 3.3634655 0 0 1 38.003906 81.216797 C 38.300452 81.417685 38.581493 81.627463 38.855469 81.84375 C 38.888038 81.531288 38.918878 81.217925 38.964844 80.912109 A 3.3634655 3.3634655 0 0 0 38.962891 80.912109 z M 23.185547 85.152344 L 23.185547 87.019531 A 3.3634655 3.3634655 0 0 1 25.509766 87.171875 C 25.551826 87.190632 25.567777 87.190596 25.609375 87.208984 C 25.278455 86.977185 24.822838 86.804105 24.523438 86.544922 C 24.035121 86.1222 23.58798 85.653904 23.185547 85.152344 z M 41.375 94.082031 C 40.788174 95.202797 39.997946 96.210531 39.005859 97.001953 L 39.003906 97.003906 C 38.848531 97.12835 38.683005 97.235309 38.521484 97.349609 C 41.329432 98.057314 44.233876 98.512279 47.212891 98.6875 C 45.416824 97.988378 43.810672 96.946425 42.509766 95.537109 C 42.089652 95.081987 41.720729 94.589829 41.375 94.082031 z "
     id="path6287" /><g
     style="font-style:normal;font-variant:normal;font-weight:normal;font-stretch:normal;font-size:32.28361511px;line-height:1.25;font-family:inconsolata;-inkscape-font-specification:inconsolata;letter-spacing:0px;word-spacing:0px;fill:#2da0b7;fill-opacity:1;stroke:none;stroke-width:0.80709034"
     id="text1005"><path
       d="m 14.839293,95.855942 0,-23.046214 4.88668,0 0,23.046214 -4.88668,0 z"
       style="font-style:normal;font-variant:normal;font-weight:bold;font-stretch:normal;font-family:'Open Sans';-inkscape-font-specification:'Open Sans Bold';fill:#2da0b7;fill-opacity:1;stroke-width:0.80709034"
       id="path14716" /><path
       d="m 39.162349,89.455967 q 0,3.12117 -2.254179,4.918207 -2.238414,1.797037 -6.242339,1.797037 -3.688655,0 -6.526083,-1.387186 l 0,-4.539884 q 2.332996,1.04039 3.940871,1.466004 1.623639,0.425615 2.963535,0.425615 1.607876,0 2.459104,-0.614776 0.866991,-0.614776 0.866991,-1.828564 0,-0.67783 -0.378323,-1.198025 -0.378324,-0.535959 -1.119207,-1.024627 -0.725121,-0.488668 -2.979299,-1.560585 -2.112307,-0.993099 -3.16846,-1.907381 -1.056154,-0.914282 -1.686693,-2.12807 -0.630539,-1.213789 -0.630539,-2.837428 0,-3.058115 2.065016,-4.807862 2.08078,-1.749747 5.737908,-1.749747 1.797037,0 3.420676,0.425614 1.639403,0.425614 3.420676,1.198025 l -1.576348,3.799 q -1.844328,-0.756648 -3.058116,-1.056154 -1.198025,-0.299506 -2.364523,-0.299506 -1.387186,0 -2.12807,0.646303 -0.740884,0.646303 -0.740884,1.686693 0,0.646302 0.299506,1.13497 0.299507,0.472905 0.94581,0.930046 0.662066,0.441378 3.105406,1.607875 3.231514,1.544822 4.429539,3.105407 1.198025,1.544821 1.198025,3.798999 z"
       style="font-style:normal;font-variant:normal;font-weight:bold;font-stretch:normal;font-family:'Open Sans';-inkscape-font-specification:'Open Sans Bold';fill:#2da0b7;fill-opacity:1;stroke-width:0.80709034"
       id="path14718" /><path
       d="m 64.257814,84.301308 q 0,5.722145 -2.837427,8.796024 -2.837427,3.073879 -8.133958,3.073879 -5.29653,0 -8.133957,-3.073879 -2.837428,-3.073879 -2.837428,-8.827551 0,-5.753672 2.837428,-8.78026 2.85319,-3.042353 8.165484,-3.042353 5.312294,0 8.118195,3.058116 2.821663,3.058116 2.821663,8.796024 z m -16.819637,0 q 0,3.862054 1.466004,5.816726 1.466004,1.954672 4.382248,1.954672 5.848253,0 5.848253,-7.771398 0,-7.787161 -5.816726,-7.787161 -2.916244,0 -4.398012,1.970435 -1.481767,1.954672 -1.481767,5.816726 z"
       style="font-style:normal;font-variant:normal;font-weight:bold;font-stretch:normal;font-family:'Open Sans';-inkscape-font-specification:'Open Sans Bold';fill:#2da0b7;fill-opacity:1;stroke-width:0.80709034"
       id="path14720" /></g></svg>