<?xml version="1.0" encoding="UTF-8" standalone="no"?>
<svg
   xmlns:dc="http://purl.org/dc/elements/1.1/"
   xmlns:cc="http://creativecommons.org/ns#"
   xmlns:rdf="http://www.w3.org/1999/02/22-rdf-syntax-ns#"
   xmlns:svg="http://www.w3.org/2000/svg"
   xmlns="http://www.w3.org/2000/svg"
   xmlns:sodipodi="http://sodipodi.sourceforge.net/DTD/sodipodi-0.dtd"
   xmlns:inkscape="http://www.inkscape.org/namespaces/inkscape"
   version="1.1"
   x="0px"
   y="0px"
   viewBox="0 0 24 30"
   style="enable-background:new 0 0 24 24;"
   xml:space="preserve"
   id="svg2"
   inkscape:version="0.91 r13725"
   sodipodi:docname="bookmark.svg"><metadata
     id="metadata20"><rdf:RDF><cc:Work
         rdf:about=""><dc:format>image/svg+xml</dc:format><dc:type
           rdf:resource="http://purl.org/dc/dcmitype/StillImage" /><dc:title></dc:title></cc:Work></rdf:RDF></metadata><defs
     id="defs18" /><sodipodi:namedview
     pagecolor="#ffffff"
     bordercolor="#666666"
     borderopacity="1"
     objecttolerance="10"
     gridtolerance="10"
     guidetolerance="10"
     inkscape:pageopacity="0"
     inkscape:pageshadow="2"
     inkscape:window-width="1920"
     inkscape:window-height="1058"
     id="namedview16"
     showgrid="false"
     inkscape:zoom="22.250293"
     inkscape:cx="19.228597"
     inkscape:cy="14.965054"
     inkscape:window-x="-8"
     inkscape:window-y="-8"
     inkscape:window-maximized="1"
     inkscape:current-layer="g4" /><g
     id="g4"
     style="fill:#004a4a;fill-opacity:1"
     transform="matrix(1.0247175,0,0,1.0247175,-0.2966102,2.7033898)"><path
       style="fill:#004a4a;fill-opacity:1"
       d="m 15.499441,7.3679924 a 5.131546,5.131546 0 0 0 -5.131383,5.1313836 5.131546,5.131546 0 0 0 5.131383,5.131383 5.131546,5.131546 0 0 0 5.131382,-5.131383 5.131546,5.131546 0 0 0 -5.131382,-5.1313836 z m 0,1.9273978 c 0.353688,0 0.641707,0.2880174 0.641707,0.6417071 l 0,1.9228467 1.922846,0 c 0.353689,0 0.639432,0.285742 0.639432,0.639432 0,0.353688 -0.285743,0.641707 -0.639432,0.641707 l -1.922846,0 0,1.922847 c 0,0.353688 -0.288019,0.639431 -0.641707,0.639431 -0.35369,0 -0.639433,-0.285743 -0.639433,-0.639431 l 0,-1.922847 -1.922846,0 c -0.353688,0 -0.641706,-0.288019 -0.641706,-0.641707 0,-0.35369 0.288018,-0.639432 0.641706,-0.639432 l 1.922846,0 0,-1.9228467 c 0,-0.3536897 0.285743,-0.6417071 0.639433,-0.6417071 z"
       id="path6"
       inkscape:connector-curvature="0" /><path
       d="m 17.933431,-0.86686299 -11.7946239,0 c -2.0694205,0 -3.7528351,1.68341457 -3.7528351,3.75283499 l 0,21.444772 c 0,0.216592 0.1308132,0.412812 0.3313218,0.495374 0.065406,0.02788 0.1361743,0.04074 0.2047975,0.04074 0.1393911,0 0.2766376,-0.05468 0.3795725,-0.156547 L 9.3576673,18.65324 c 2.4039587,2.372864 5.7257537,5.668926 5.9509237,5.914468 0.06648,0.13403 0.185498,0.236965 0.335611,0.278782 0.229459,0.06541 0.477146,-0.03217 0.60367,-0.236964 0.05576,-0.09007 0.08149,-0.195148 0.0772,-0.299155 l 0,-4.268582 c 0,-0.295937 -0.240182,-0.536119 -0.53612,-0.536119 -3.842903,0 -6.9695505,-3.126648 -6.9695505,-6.969551 0,-3.8429028 3.1266475,-6.9695505 6.9695505,-6.9695505 0.295938,0 0.53612,-0.2401814 0.53612,-0.5361193 l 0,-3.2167157 c 0,-0.88674134 0.721616,-1.60835791 1.608357,-1.60835791 0.295938,0 0.53612,-0.24018144 0.53612,-0.53611929 0,-0.29593785 -0.240182,-0.53611929 -0.53612,-0.53611929 z"
       id="path8"
       style="fill:#004a4a;fill-opacity:1"
       inkscape:connector-curvature="0" /><path
       d="m 17.933431,-0.86686299 -2.680596,0 c -0.295938,0 -0.536119,0.24018144 -0.536119,0.53611929 l 0,3.2167157 c 0,0.2959379 0.240181,0.5361193 0.536119,0.5361193 l 1.072239,0 0,-1.6083578 c 0,-0.88674134 0.721616,-1.60835791 1.608357,-1.60835791 0.295938,0 0.53612,0.24018144 0.53612,0.53611929 0,0.29593782 -0.240182,0.53611932 -0.53612,0.53611932 -0.294865,0 -0.536119,0.2401814 -0.536119,0.5361193 l 0,1.6083578 2.680597,0 c 0.295938,0 0.536119,-0.2401814 0.536119,-0.5361193 l 0,-1.0722385 c 0,-1.4775448 -1.201979,-2.68059649 -2.680597,-2.68059649 z"
       id="path10"
       style="fill:#004a4a;fill-opacity:1"
       inkscape:connector-curvature="0" /></g></svg>