<?xml version="1.0" encoding="UTF-8" standalone="no"?>
<!-- Created with Inkscape (http://www.inkscape.org/) -->

<svg
   xmlns:dc="http://purl.org/dc/elements/1.1/"
   xmlns:cc="http://creativecommons.org/ns#"
   xmlns:rdf="http://www.w3.org/1999/02/22-rdf-syntax-ns#"
   xmlns:svg="http://www.w3.org/2000/svg"
   xmlns="http://www.w3.org/2000/svg"
   xmlns:sodipodi="http://sodipodi.sourceforge.net/DTD/sodipodi-0.dtd"
   xmlns:inkscape="http://www.inkscape.org/namespaces/inkscape"
   width="68.26667"
   height="68.26667"
   id="svg4864"
   version="1.1"
   inkscape:version="0.91 r13725"
   sodipodi:docname="script.svg"
   inkscape:export-filename="C:\Users\wilkie\occam\object_large.png"
   inkscape:export-xdpi="135"
   inkscape:export-ydpi="135">
  <defs
     id="defs4866" />
  <sodipodi:namedview
     id="base"
     pagecolor="#ffffff"
     bordercolor="#666666"
     borderopacity="1.0"
     inkscape:pageopacity="0.0"
     inkscape:pageshadow="2"
     inkscape:zoom="7.1044918"
     inkscape:cx="41.895803"
     inkscape:cy="18.69261"
     inkscape:current-layer="layer1"
     showgrid="true"
     inkscape:document-units="px"
     inkscape:grid-bbox="true"
     inkscape:window-width="1920"
     inkscape:window-height="1057"
     inkscape:window-x="-8"
     inkscape:window-y="1072"
     inkscape:window-maximized="1"
     inkscape:snap-others="false"
     inkscape:object-nodes="false"
     inkscape:snap-nodes="false"
     inkscape:snap-global="false" />
  <metadata
     id="metadata4869">
    <rdf:RDF>
      <cc:Work
         rdf:about="">
        <dc:format>image/svg+xml</dc:format>
        <dc:type
           rdf:resource="http://purl.org/dc/dcmitype/StillImage" />
        <dc:title></dc:title>
      </cc:Work>
    </rdf:RDF>
  </metadata>
  <g
     id="layer1"
     inkscape:label="Layer 1"
     inkscape:groupmode="layer">
    <g
       transform="matrix(0.80667455,0,0,1.091758,1.7234642,2.100816)"
       style="font-style:normal;font-weight:normal;font-size:51.9701767px;line-height:125%;font-family:sans-serif;letter-spacing:0px;word-spacing:0px;fill:#2da0b7;fill-opacity:1;stroke:none;stroke-width:1px;stroke-linecap:butt;stroke-linejoin:miter;stroke-opacity:1"
       id="text5350">
      <path
         sodipodi:type="inkscape:offset"
         inkscape:radius="0.38873202"
         inkscape:original="M 14.128906 4.3203125 C 10.931522 4.3203125 8.6391779 4.8013346 7.2519531 5.765625 C 5.6955546 6.848337 4.9160156 8.8102245 4.9160156 11.652344 L 4.9160156 22.615234 C 4.9160156 26.066379 3.5283557 28.0048 0.75390625 28.427734 L 0.75390625 30.253906 C 3.5283557 30.693757 4.9160156 32.647172 4.9160156 36.115234 L 4.9160156 46.976562 C 4.9160156 49.480335 5.5006698 51.289703 6.6679688 52.40625 C 8.0213588 53.708888 10.508588 54.361328 14.128906 54.361328 L 14.787109 54.361328 L 14.787109 52.267578 L 14.482422 52.267578 C 12.080155 52.267578 10.621832 52.075103 9.640625 51.347656 C 7.597769 49.680087 7.7324219 47.440095 7.7324219 45.15625 L 7.7324219 36.064453 C 7.7324219 32.833234 8.4610558 30.583256 5.2636719 29.314453 C 8.4610558 28.11332 7.7324219 25.880287 7.7324219 22.615234 L 7.7324219 13.525391 C 7.7324219 11.512223 7.5695124 9.4829308 9.2089844 7.7128906 C 10.125432 6.7234567 11.775642 6.2675781 14.482422 6.2675781 L 14.787109 6.2675781 L 14.787109 4.3203125 L 14.128906 4.3203125 z "
         style="font-style:normal;font-variant:normal;font-weight:normal;font-stretch:normal;font-family:'Yu Gothic';-inkscape-font-specification:'Yu Gothic';fill:#2da0b7;fill-opacity:1"
         id="path5942"
         d="m 14.128906,3.9316406 c -3.236372,0 -5.5973333,0.4713602 -7.0996091,1.515625 -1.687161,1.1736772 -2.5019532,3.2918775 -2.5019531,6.2050784 l 0,10.96289 c 0,1.673472 -0.3386311,2.93637 -0.96875,3.816407 -0.630119,0.880037 -1.553977,1.411739 -2.8632813,1.611328 a 0.38877089,0.38877089 0 0 0 -0.33007812,0.384765 l 0,1.826172 a 0.38877089,0.38877089 0 0 0 0.328125,0.384766 c 1.30922642,0.20756 2.23437572,0.746441 2.86523442,1.634766 0.6308586,0.888324 0.96875,2.159613 0.96875,3.841796 l 0,10.861328 c 0,2.563553 0.5998079,4.492194 1.8710937,5.708985 C 7.8765493,54.10823 10.461884,54.75 14.128906,54.75 l 0.658203,0 a 0.38877089,0.38877089 0 0 0 0.388672,-0.388672 l 0,-2.09375 a 0.38877089,0.38877089 0 0 0 -0.388672,-0.388672 l -0.304687,0 c -2.376585,0 -3.743656,-0.205696 -4.6035158,-0.839844 C 8.9334943,50.263798 8.5086119,49.390363 8.3007812,48.402344 8.0922505,47.410996 8.1210937,46.305812 8.1210938,45.15625 l 0,-9.091797 c 0,-1.58639 0.1933927,-2.963072 -0.042969,-4.185547 C 7.880277,30.855625 7.2826469,29.977515 6.1191406,29.322266 7.2815345,28.692364 7.8801821,27.828568 8.078125,26.8125 c 0.2367537,-1.215289 0.042969,-2.593656 0.042969,-4.197266 l 0,-9.089843 c 0,-2.03414 -0.1570487,-3.8968755 1.3730468,-5.5488285 C 10.292952,7.1141332 11.819289,6.65625 14.482422,6.65625 l 0.304687,0 a 0.38877089,0.38877089 0 0 0 0.388672,-0.3886719 l 0,-1.9472656 A 0.38877089,0.38877089 0 0 0 14.787109,3.9316406 l -0.658203,0 z" />
    </g>
    <g
       id="g5944"
       style="font-style:normal;font-weight:normal;font-size:51.9701767px;line-height:125%;font-family:sans-serif;letter-spacing:0px;word-spacing:0px;fill:#2da0b7;fill-opacity:1;stroke:none;stroke-width:1px;stroke-linecap:butt;stroke-linejoin:miter;stroke-opacity:1"
       transform="matrix(-0.80667455,0,0,1.091758,66.541517,2.1008164)">
      <path
         d="m 14.128906,3.9316406 c -3.236372,0 -5.5973333,0.4713602 -7.0996091,1.515625 -1.687161,1.1736772 -2.5019532,3.2918775 -2.5019531,6.2050784 l 0,10.96289 c 0,1.673472 -0.3386311,2.93637 -0.96875,3.816407 -0.630119,0.880037 -1.553977,1.411739 -2.8632813,1.611328 a 0.38877089,0.38877089 0 0 0 -0.33007812,0.384765 l 0,1.826172 a 0.38877089,0.38877089 0 0 0 0.328125,0.384766 c 1.30922642,0.20756 2.23437572,0.746441 2.86523442,1.634766 0.6308586,0.888324 0.96875,2.159613 0.96875,3.841796 l 0,10.861328 c 0,2.563553 0.5998079,4.492194 1.8710937,5.708985 C 7.8765493,54.10823 10.461884,54.75 14.128906,54.75 l 0.658203,0 a 0.38877089,0.38877089 0 0 0 0.388672,-0.388672 l 0,-2.09375 a 0.38877089,0.38877089 0 0 0 -0.388672,-0.388672 l -0.304687,0 c -2.376585,0 -3.743656,-0.205696 -4.6035158,-0.839844 C 8.9334943,50.263798 8.5086119,49.390363 8.3007812,48.402344 8.0922505,47.410996 8.1210937,46.305812 8.1210938,45.15625 l 0,-9.091797 c 0,-1.58639 0.1933927,-2.963072 -0.042969,-4.185547 C 7.880277,30.855625 7.2826469,29.977515 6.1191406,29.322266 7.2815345,28.692364 7.8801821,27.828568 8.078125,26.8125 c 0.2367537,-1.215289 0.042969,-2.593656 0.042969,-4.197266 l 0,-9.089843 c 0,-2.03414 -0.1570487,-3.8968755 1.3730468,-5.5488285 C 10.292952,7.1141332 11.819289,6.65625 14.482422,6.65625 l 0.304687,0 a 0.38877089,0.38877089 0 0 0 0.388672,-0.3886719 l 0,-1.9472656 A 0.38877089,0.38877089 0 0 0 14.787109,3.9316406 l -0.658203,0 z"
         id="path5946"
         style="font-style:normal;font-variant:normal;font-weight:normal;font-stretch:normal;font-family:'Yu Gothic';-inkscape-font-specification:'Yu Gothic';fill:#2da0b7;fill-opacity:1"
         inkscape:original="M 14.128906 4.3203125 C 10.931522 4.3203125 8.6391779 4.8013346 7.2519531 5.765625 C 5.6955546 6.848337 4.9160156 8.8102245 4.9160156 11.652344 L 4.9160156 22.615234 C 4.9160156 26.066379 3.5283557 28.0048 0.75390625 28.427734 L 0.75390625 30.253906 C 3.5283557 30.693757 4.9160156 32.647172 4.9160156 36.115234 L 4.9160156 46.976562 C 4.9160156 49.480335 5.5006698 51.289703 6.6679688 52.40625 C 8.0213588 53.708888 10.508588 54.361328 14.128906 54.361328 L 14.787109 54.361328 L 14.787109 52.267578 L 14.482422 52.267578 C 12.080155 52.267578 10.621832 52.075103 9.640625 51.347656 C 7.597769 49.680087 7.7324219 47.440095 7.7324219 45.15625 L 7.7324219 36.064453 C 7.7324219 32.833234 8.4610558 30.583256 5.2636719 29.314453 C 8.4610558 28.11332 7.7324219 25.880287 7.7324219 22.615234 L 7.7324219 13.525391 C 7.7324219 11.512223 7.5695124 9.4829308 9.2089844 7.7128906 C 10.125432 6.7234567 11.775642 6.2675781 14.482422 6.2675781 L 14.787109 6.2675781 L 14.787109 4.3203125 L 14.128906 4.3203125 z "
         inkscape:radius="0.38873202"
         sodipodi:type="inkscape:offset" />
    </g>
    <rect
       style="fill:#64c4d9;fill-opacity:1;stroke:none"
       id="rect4892"
       width="19.934458"
       height="19.934458"
       x="-17.498569"
       y="35.651371"
       transform="matrix(0.89442719,-0.4472136,0.89442719,0.4472136,0,0)" />
    <rect
       style="fill:#2da0b7;fill-opacity:1;stroke:none"
       id="rect4907"
       width="20.146765"
       height="19.268343"
       x="39.148499"
       y="51.494904"
       transform="matrix(0.8949854,-0.44609543,0,1,0,0)" />
    <rect
       transform="matrix(-0.8949854,-0.44609543,0,1,0,0)"
       y="17.581121"
       x="-37.128357"
       height="19.268343"
       width="20.146765"
       id="rect4938"
       style="fill:#2da0b7;fill-opacity:1;stroke:none" />
  </g>
</svg>
