<?xml version="1.0" encoding="UTF-8" standalone="no"?>
<svg
   xmlns:dc="http://purl.org/dc/elements/1.1/"
   xmlns:cc="http://creativecommons.org/ns#"
   xmlns:rdf="http://www.w3.org/1999/02/22-rdf-syntax-ns#"
   xmlns:svg="http://www.w3.org/2000/svg"
   xmlns="http://www.w3.org/2000/svg"
   xmlns:sodipodi="http://sodipodi.sourceforge.net/DTD/sodipodi-0.dtd"
   xmlns:inkscape="http://www.inkscape.org/namespaces/inkscape"
   width="22"
   height="22"
   viewBox="0 0 22 22"
   version="1.1"
   id="svg2"
   inkscape:version="0.91 r13725"
   sodipodi:docname="info.svg"
   inkscape:export-filename="Z:\projects\occam\Large-Icons\group_large.png"
   inkscape:export-xdpi="392.72726"
   inkscape:export-ydpi="392.72726">
  <metadata
     id="metadata14">
    <rdf:RDF>
      <cc:Work
         rdf:about="">
        <dc:format>image/svg+xml</dc:format>
        <dc:type
           rdf:resource="http://purl.org/dc/dcmitype/StillImage" />
        <dc:title>album_collection</dc:title>
      </cc:Work>
    </rdf:RDF>
  </metadata>
  <sodipodi:namedview
     pagecolor="#ffffff"
     bordercolor="#666666"
     borderopacity="1"
     objecttolerance="10"
     gridtolerance="10"
     guidetolerance="10"
     inkscape:pageopacity="0"
     inkscape:pageshadow="2"
     inkscape:window-width="1920"
     inkscape:window-height="1057"
     id="namedview12"
     showgrid="false"
     inkscape:zoom="11.056818"
     inkscape:cx="41.566754"
     inkscape:cy="41.90432"
     inkscape:window-x="-8"
     inkscape:window-y="1072"
     inkscape:window-maximized="1"
     inkscape:current-layer="g6299" />
  <title
     id="title4">album_collection</title>
  <description
     id="description6">Created with Sketch (http://www.bohemiancoding.com/sketch)</description>
  <defs
     id="defs8" />
  <g
     id="g6299"
     transform="translate(179.67237,-70.223625)">
    <path
       style="fill:#2da0b7;fill-opacity:1;stroke:none;stroke-width:1.13604546;stroke-miterlimit:4;stroke-dasharray:6.81627266, 6.81627266000000009;stroke-dashoffset:0;stroke-opacity:1"
       d="M 11 0.171875 A 10.827573 10.827573 0 0 0 0.171875 11 A 10.827573 10.827573 0 0 0 11 21.828125 A 10.827573 10.827573 0 0 0 21.828125 11 A 10.827573 10.827573 0 0 0 11 0.171875 z M 11 1.0878906 A 9.9125767 9.9125767 0 0 1 20.912109 11 A 9.9125767 9.9125767 0 0 1 11 20.912109 A 9.9125767 9.9125767 0 0 1 1.0878906 11 A 9.9125767 9.9125767 0 0 1 11 1.0878906 z "
       transform="translate(-179.67237,70.223625)"
       id="path865" />
    <g
       aria-label="i"
       style="font-style:normal;font-variant:normal;font-weight:normal;font-stretch:normal;font-size:20.49995041px;line-height:1.25;font-family:inconsolata;-inkscape-font-specification:inconsolata;letter-spacing:0px;word-spacing:0px;fill:#2da0b7;fill-opacity:1;stroke:none;stroke-width:0.51249874"
       id="text874"
       transform="matrix(1.0786561,0,0,1.0786561,13.267115,-6.3887355)">
      <path
         d="m -166.78588,86.435105 -0.70505,0 0,-7.698398 -3.52526,0 0,1.469909 1.10521,0 0,5.237606 c 0,0.558959 -0.22231,0.87655 -0.66694,0.952772 -0.12703,0.0254 -0.27312,0.03811 -0.43827,0.03811 l 0,1.022995 4.68764,0 c 0,-0.01936 -3.6e-4,-0.565693 -9.5e-4,-0.583884 -0.0102,-0.256313 -0.0924,-0.396332 -0.24664,-0.420055 -0.0635,-0.01271 -0.13338,-0.01906 -0.20961,-0.01906 z m -0.53356,-10.194661 c 0,-0.558959 -0.24771,-0.971826 -0.74316,-1.238603 -0.21596,-0.127036 -0.44462,-0.190554 -0.68599,-0.190554 -0.54626,0 -0.95913,0.24772 -1.2386,0.743162 -0.11434,0.215961 -0.1715,0.444627 -0.1715,0.685995 0,0.55896 0.24771,0.965476 0.74316,1.219549 0.21596,0.114332 0.43827,0.171498 0.66694,0.171498 0.55896,0 0.97183,-0.235017 1.2386,-0.705051 0.12704,-0.215961 0.19055,-0.444627 0.19055,-0.685996 z"
         style="font-style:normal;font-variant:normal;font-weight:normal;font-stretch:normal;font-family:'Abhaya Libre ExtraBold';-inkscape-font-specification:'Abhaya Libre ExtraBold, ';fill:#2da0b7;fill-opacity:1;stroke-width:0.48781925"
         id="path876"
         inkscape:connector-curvature="0"
         sodipodi:nodetypes="scccccsccccsccssscscscss" />
    </g>
    <path
       style="fill:#2da0b7;fill-opacity:1;stroke:none;stroke-width:1.13604546;stroke-miterlimit:4;stroke-dasharray:6.81627266, 6.81627266;stroke-dashoffset:0;stroke-opacity:1"
       d="m -168.67237,71.916151 a 9.3065956,9.3065956 0 0 0 -9.30747,9.307474 9.3065956,9.3065956 0 0 0 9.30747,9.307474 9.3065956,9.3065956 0 0 0 9.30747,-9.307474 9.3065956,9.3065956 0 0 0 -9.30747,-9.307474 z m 0,0.563496 a 8.7431075,8.7431075 0 0 1 8.74398,8.743978 8.7431075,8.7431075 0 0 1 -8.74398,8.743978 8.7431075,8.7431075 0 0 1 -8.74398,-8.743978 8.7431075,8.7431075 0 0 1 8.74398,-8.743978 z"
       id="path5866"
       inkscape:connector-curvature="0" />
  </g>
</svg>
