<?xml version="1.0" encoding="UTF-8" standalone="no"?>
<svg
   version="1.1"
   x="0px"
   y="0px"
   width="100px"
   height="100px"
   viewBox="0 0 100 100"
   enable-background="new 0 0 100 100"
   xml:space="preserve"
   id="svg2"
   inkscape:version="1.1.1 (3bf5ae0d25, 2021-09-20)"
   sodipodi:docname="italic.svg"
   inkscape:export-filename="C:\Users\wilkie\occam\configuration.png"
   inkscape:export-xdpi="18"
   inkscape:export-ydpi="18"
   xmlns:inkscape="http://www.inkscape.org/namespaces/inkscape"
   xmlns:sodipodi="http://sodipodi.sourceforge.net/DTD/sodipodi-0.dtd"
   xmlns="http://www.w3.org/2000/svg"
   xmlns:svg="http://www.w3.org/2000/svg"
   xmlns:rdf="http://www.w3.org/1999/02/22-rdf-syntax-ns#"
   xmlns:cc="http://creativecommons.org/ns#"
   xmlns:dc="http://purl.org/dc/elements/1.1/"><metadata
   id="metadata122"><rdf:RDF><cc:Work
       rdf:about=""><dc:format>image/svg+xml</dc:format><dc:type
         rdf:resource="http://purl.org/dc/dcmitype/StillImage" /></cc:Work></rdf:RDF></metadata><defs
   id="defs120" /><sodipodi:namedview
   pagecolor="#ffffff"
   bordercolor="#666666"
   borderopacity="1"
   objecttolerance="10"
   gridtolerance="10"
   guidetolerance="10"
   inkscape:pageopacity="0"
   inkscape:pageshadow="2"
   inkscape:window-width="1920"
   inkscape:window-height="1051"
   id="namedview118"
   showgrid="false"
   inkscape:zoom="3.3693638"
   inkscape:cx="-49.712649"
   inkscape:cy="44.370394"
   inkscape:window-x="-9"
   inkscape:window-y="-9"
   inkscape:window-maximized="1"
   inkscape:current-layer="text1173"
   inkscape:object-nodes="false"
   inkscape:pagecheckerboard="0" />
<g
   aria-label="T"
   style="font-style:normal;font-variant:normal;font-weight:normal;font-stretch:normal;font-size:84.83261871px;line-height:1.25;font-family:inconsolata;-inkscape-font-specification:inconsolata;letter-spacing:0px;word-spacing:0px;fill:#2da0b7;fill-opacity:1;stroke:none;stroke-width:2.12081552"
   id="text5776"><g
     aria-label="B"
     id="text1173"
     style="font-size:96px;font-family:sans-serif;fill:#000000"><g
       aria-label="I"
       id="text5804"
       style="font-size:94.3671px;stroke-width:2.08474"><path
         d="M 55.667546,84.304855 H 28.48171 l 1.520564,-6.681264 h 8.985149 L 51.79702,22.376444 h -8.985149 l 1.520564,-6.681265 H 71.51827 l -1.520564,6.681265 H 61.012557 L 48.20296,77.623591 h 8.985149 z"
         style="font-style:italic"
         id="path8059" /></g></g></g></svg>
