<?xml version="1.0" encoding="UTF-8" standalone="no"?>
<svg
   xmlns:dc="http://purl.org/dc/elements/1.1/"
   xmlns:cc="http://creativecommons.org/ns#"
   xmlns:rdf="http://www.w3.org/1999/02/22-rdf-syntax-ns#"
   xmlns:svg="http://www.w3.org/2000/svg"
   xmlns="http://www.w3.org/2000/svg"
   xmlns:sodipodi="http://sodipodi.sourceforge.net/DTD/sodipodi-0.dtd"
   xmlns:inkscape="http://www.inkscape.org/namespaces/inkscape"
   version="1.1"
   x="0px"
   y="0px"
   viewBox="0 0 49.201376 49.20468"
   xml:space="preserve"
   id="svg2"
   inkscape:version="0.92.1 r"
   sodipodi:docname="no-output.svg"
   width="52.481468"
   height="52.484993"><metadata
     id="metadata20"><rdf:RDF><cc:Work
         rdf:about=""><dc:format>image/svg+xml</dc:format><dc:type
           rdf:resource="http://purl.org/dc/dcmitype/StillImage" /><dc:title></dc:title></cc:Work></rdf:RDF></metadata><defs
     id="defs18" /><sodipodi:namedview
     pagecolor="#ffffff"
     bordercolor="#666666"
     borderopacity="1"
     objecttolerance="10"
     gridtolerance="10"
     guidetolerance="10"
     inkscape:pageopacity="0"
     inkscape:pageshadow="2"
     inkscape:window-width="1920"
     inkscape:window-height="1172"
     id="namedview16"
     showgrid="false"
     inkscape:zoom="8.3390423"
     inkscape:cx="46.513225"
     inkscape:cy="28.525757"
     inkscape:window-x="1920"
     inkscape:window-y="0"
     inkscape:window-maximized="1"
     inkscape:current-layer="g4" /><g
     id="g4"
     style="fill:#004a4a;fill-opacity:1"
     transform="matrix(1.0247175,0,0,1.0247175,-18.248779,61.875872)"><path
       style="fill:#cccccc;stroke-width:1.65122676"
       d="m 21.668982,-60.383347 c -2.137884,0 -3.860387,1.722503 -3.860387,3.860387 v 40.297027 c 0,2.137883 1.722503,3.860386 3.860387,3.860386 h 40.297025 c 2.137886,0 3.857164,-1.722503 3.857164,-3.860386 V -56.52296 c 0,-2.137884 -1.719278,-3.860387 -3.857164,-3.860387 z m 0,2.521991 h 40.297025 c 0.788031,0 1.338398,0.553136 1.338398,1.338396 v 40.297027 c 0,0.785263 -0.550367,1.33517 -1.338398,1.33517 H 21.668982 c -0.788031,0 -1.338396,-0.549907 -1.338396,-1.33517 V -56.52296 c 0,-0.785262 0.550365,-1.338396 1.338396,-1.338396 z"
       id="rect226"
       inkscape:connector-curvature="0" /><path
       style="fill:#cccccc;stroke-width:2.24825859"
       d="m 58.924784,-56.264955 -37.001023,37.001023 v 1.541575 c 0,0.726974 0.512108,1.23842 1.241646,1.23842 h 1.541575 L 61.708005,-53.48496 v -1.541575 c -2e-6,-0.726975 -0.508885,-1.23842 -1.238421,-1.23842 z"
       id="rect263"
       inkscape:connector-curvature="0"
       sodipodi:nodetypes="ccsscccsc" /></g></svg>