<?xml version="1.0" encoding="UTF-8" standalone="no"?>
<svg
   xmlns:dc="http://purl.org/dc/elements/1.1/"
   xmlns:cc="http://creativecommons.org/ns#"
   xmlns:rdf="http://www.w3.org/1999/02/22-rdf-syntax-ns#"
   xmlns:svg="http://www.w3.org/2000/svg"
   xmlns="http://www.w3.org/2000/svg"
   xmlns:sodipodi="http://sodipodi.sourceforge.net/DTD/sodipodi-0.dtd"
   xmlns:inkscape="http://www.inkscape.org/namespaces/inkscape"
   version="1.1"
   x="0px"
   y="0px"
   viewBox="0 0 27.260742 27.262573"
   xml:space="preserve"
   id="svg2"
   inkscape:version="0.92.1 r"
   sodipodi:docname="no-results.svg"
   width="29.078125"
   height="29.080078"><metadata
     id="metadata20"><rdf:RDF><cc:Work
         rdf:about=""><dc:format>image/svg+xml</dc:format><dc:type
           rdf:resource="http://purl.org/dc/dcmitype/StillImage" /><dc:title></dc:title></cc:Work></rdf:RDF></metadata><defs
     id="defs18" /><sodipodi:namedview
     pagecolor="#ffffff"
     bordercolor="#666666"
     borderopacity="1"
     objecttolerance="10"
     gridtolerance="10"
     guidetolerance="10"
     inkscape:pageopacity="0"
     inkscape:pageshadow="2"
     inkscape:window-width="1920"
     inkscape:window-height="1172"
     id="namedview16"
     showgrid="false"
     inkscape:zoom="16.678085"
     inkscape:cx="24.089513"
     inkscape:cy="19.807316"
     inkscape:window-x="1920"
     inkscape:window-y="0"
     inkscape:window-maximized="1"
     inkscape:current-layer="g4" /><g
     id="g4"
     style="fill:#004a4a;fill-opacity:1"
     transform="matrix(1.0247175,0,0,1.0247175,-0.75986703,1.7768762)"><path
       style="stroke-width:1;fill:#cccccc"
       d="m 2.8320312,0.98828125 c -1.2947245,0 -2.33789058,1.04316615 -2.33789058,2.33789065 V 27.730469 c 0,1.294724 1.04316608,2.33789 2.33789058,2.33789 H 27.236328 c 1.294725,0 2.335938,-1.043166 2.335938,-2.33789 V 3.3261719 c 0,-1.2947245 -1.041213,-2.33789065 -2.335938,-2.33789065 z m 0,1.52734375 H 27.236328 c 0.477239,0 0.810547,0.3349848 0.810547,0.8105469 V 27.730469 c 0,0.475563 -0.333308,0.808593 -0.810547,0.808593 H 2.8320312 c -0.4772396,0 -0.8105468,-0.33303 -0.8105468,-0.808593 V 3.3261719 c 0,-0.4755628 0.3333072,-0.8105469 0.8105468,-0.8105469 z"
       id="rect226"
       inkscape:connector-curvature="0"
       transform="matrix(0.91488629,0,0,0.91488629,0.28945558,-2.6381806)" /><path
       style="fill:#cccccc;stroke-width:1.36156869"
       d="M 24.900391,2.4941406 2.4921875,24.902344 v 0.933594 c 0,0.440263 0.3101376,0.75 0.7519531,0.75 H 4.1777344 L 26.585938,4.1777344 V 3.2441406 c -10e-7,-0.4402626 -0.308186,-0.75 -0.75,-0.75 z"
       id="rect263"
       inkscape:connector-curvature="0"
       sodipodi:nodetypes="ccsscccsc"
       transform="matrix(0.91488629,0,0,0.91488629,0.74153806,-1.7340157)" /><path
       style="fill:#e6e6e6;fill-opacity:1;stroke:none;stroke-width:0.37305003"
       d="M 14.507812 5.5605469 L 6.203125 9.7128906 L 12.931641 13.078125 L 18.46875 7.5410156 L 14.507812 5.5605469 z M 22.523438 9.5683594 L 21.945312 10.146484 L 22.8125 9.7128906 L 22.523438 9.5683594 z "
       transform="matrix(0.91488629,0,0,0.91488629,0.74153806,-1.7340157)"
       id="rect4892" /><path
       style="fill:#e6e6e6;fill-opacity:1;stroke:none;stroke-width:0.39457545"
       d="M 23.359375 10.306641 L 20.220703 11.871094 L 14.960938 17.130859 L 14.960938 23.466797 L 23.359375 19.28125 L 23.359375 10.306641 z "
       transform="matrix(0.91488629,0,0,0.91488629,0.74153806,-1.7340157)"
       id="rect4907" /><path
       style="fill:#e6e6e6;fill-opacity:1;stroke:none;stroke-width:0.39457545"
       d="M 5.71875 10.359375 L 5.71875 19.333984 L 6.3574219 19.652344 L 12.347656 13.662109 L 5.71875 10.359375 z M 14.117188 17.974609 L 10.416016 21.675781 L 14.117188 23.519531 L 14.117188 17.974609 z "
       transform="matrix(0.91488629,0,0,0.91488629,0.74153806,-1.7340157)"
       id="rect4938" /></g></svg>