<?xml version="1.0" encoding="UTF-8" standalone="no"?>
<svg
   version="1.1"
   x="0px"
   y="0px"
   width="100px"
   height="100px"
   viewBox="0 0 100 100"
   enable-background="new 0 0 100 100"
   xml:space="preserve"
   id="svg2"
   inkscape:version="1.1.1 (3bf5ae0d25, 2021-09-20)"
   sodipodi:docname="numbered-list.svg"
   inkscape:export-filename="C:\Users\wilkie\occam\configuration.png"
   inkscape:export-xdpi="18"
   inkscape:export-ydpi="18"
   xmlns:inkscape="http://www.inkscape.org/namespaces/inkscape"
   xmlns:sodipodi="http://sodipodi.sourceforge.net/DTD/sodipodi-0.dtd"
   xmlns="http://www.w3.org/2000/svg"
   xmlns:svg="http://www.w3.org/2000/svg"
   xmlns:rdf="http://www.w3.org/1999/02/22-rdf-syntax-ns#"
   xmlns:cc="http://creativecommons.org/ns#"
   xmlns:dc="http://purl.org/dc/elements/1.1/"><metadata
   id="metadata122"><rdf:RDF><cc:Work
       rdf:about=""><dc:format>image/svg+xml</dc:format><dc:type
         rdf:resource="http://purl.org/dc/dcmitype/StillImage" /></cc:Work></rdf:RDF></metadata><defs
   id="defs120" /><sodipodi:namedview
   pagecolor="#ffffff"
   bordercolor="#666666"
   borderopacity="1"
   objecttolerance="10"
   gridtolerance="10"
   guidetolerance="10"
   inkscape:pageopacity="0"
   inkscape:pageshadow="2"
   inkscape:window-width="1920"
   inkscape:window-height="1051"
   id="namedview118"
   showgrid="false"
   inkscape:zoom="1"
   inkscape:cx="16.5"
   inkscape:cy="73.5"
   inkscape:window-x="-9"
   inkscape:window-y="-9"
   inkscape:window-maximized="1"
   inkscape:current-layer="text1173"
   inkscape:object-nodes="false"
   inkscape:pagecheckerboard="0" />
<g
   aria-label="T"
   style="font-style:normal;font-variant:normal;font-weight:normal;font-stretch:normal;font-size:84.83261871px;line-height:1.25;font-family:inconsolata;-inkscape-font-specification:inconsolata;letter-spacing:0px;word-spacing:0px;fill:#2da0b7;fill-opacity:1;stroke:none;stroke-width:2.12081552"
   id="text5776"><g
     aria-label="B"
     id="text1173"
     style="font-size:96px;font-family:sans-serif;fill:#000000"><rect
       style="fill:#000000;stroke:none;stroke-width:111.162;stroke-linecap:round;stroke-linejoin:round"
       id="rect16946"
       width="73.419884"
       height="13.850997"
       x="13.28396"
       y="14.740279"
       ry="6.9254985" /><rect
       style="fill:#000000;stroke:none;stroke-width:92.996;stroke-linecap:round;stroke-linejoin:round"
       id="rect17216"
       width="51.384205"
       height="13.850997"
       x="35.319637"
       y="71.206177"
       ry="6.9254985" /><rect
       style="fill:#000000;stroke:none;stroke-width:92.996;stroke-linecap:round;stroke-linejoin:round"
       id="rect17378"
       width="51.384205"
       height="13.850997"
       x="35.319637"
       y="42.973228"
       ry="6.9254985" /><g
       aria-label="1"
       id="text20991"
       style="font-size:30.7553px;stroke:#000000;stroke-width:1.63066"><g
         id="path24969"><path
           style="color:#000000;-inkscape-font-specification:inconsolata;stroke:none;-inkscape-stroke:none"
           d="m 23.255432,40.083936 h -1.476255 l -5.013114,2.6142 0.492085,1.199457 3.844413,-1.137946 v 16.515596 h 2.152871 z"
           id="path25023" /><path
           style="color:#000000;-inkscape-font-specification:inconsolata;stroke:none;-inkscape-stroke:none"
           d="m 21.580078,39.269531 -5.851562,3.048828 1.054687,2.570313 3.503906,-1.03711 v 16.238282 h 3.783203 V 39.269531 h -0.814453 z"
           id="path25020"
           sodipodi:nodetypes="ccccccccc" /></g></g><g
       aria-label="2"
       id="text22249"
       style="font-size:27.3852px;stroke:#000000;stroke-width:1.45198"><g
         id="path24978"><path
           style="color:#000000;-inkscape-font-specification:inconsolata;stroke:none;-inkscape-stroke:none"
           d="m 16.349578,72.301737 1.396645,1.122793 c 0.164311,-0.246467 0.08216,-0.410778 0.246467,-0.62986 0.410778,-0.629859 1.42403,-1.560956 2.902831,-1.560956 1.834808,0 3.286224,1.396645 3.286224,3.231454 0,2.081275 -1.752653,3.587461 -2.984987,4.710254 -1.944349,1.752653 -3.532691,3.505306 -4.956721,6.325981 v 1.204949 H 26.26302 v -1.889579 c -0.191696,-0.08216 -0.328622,0.05477 -0.383393,0.109541 -0.10954,0.109541 -0.164311,0.109541 -0.273852,0.109541 h -7.174922 c 1.42403,-2.464668 3.42315,-4.16255 4.655484,-5.312729 1.232334,-1.177564 2.984987,-2.930216 2.984987,-5.394884 0,-2.656365 -2.163431,-4.79241 -4.929336,-4.79241 -1.94435,0 -3.779158,1.040637 -4.79241,2.765905 z"
           id="path25017" /><path
           style="color:#000000;-inkscape-font-specification:inconsolata;stroke:none;-inkscape-stroke:none"
           d="m 21.142578,68.810547 c -2.203386,0 -4.277415,1.177696 -5.419922,3.123047 l -0.316406,0.541015 0.488281,0.392578 2.015625,1.621094 c 0.720049,-1.178039 1.671471,-2.461947 2.986284,-2.529299 1.466394,0 2.558594,1.053913 2.558594,2.50586 0,1.6737 -1.50133,3.037931 -2.748047,4.173828 l 0.0039,-0.002 c -1.977082,1.782159 -3.651759,3.630565 -5.11914,6.537109 l -0.07813,0.154297 v 2.103516 h 11.474609 v -3.09375 c -2.265237,-0.01855 -4.590098,-0.02734 -7.099609,-0.02734 1.240066,-1.712107 2.662706,-3.094697 3.693359,-4.056641 l 0.002,-0.0039 0.0039,-0.002 c 1.243894,-1.188611 3.208984,-3.111084 3.208984,-5.919922 0,-3.050542 -2.514618,-5.517578 -5.654297,-5.517578 z"
           id="path25014"
           sodipodi:nodetypes="ccccccscccccccccccscc" /></g></g></g></g></svg>
