<?xml version="1.0" encoding="UTF-8" standalone="no"?>
<svg
   xmlns:dc="http://purl.org/dc/elements/1.1/"
   xmlns:cc="http://creativecommons.org/ns#"
   xmlns:rdf="http://www.w3.org/1999/02/22-rdf-syntax-ns#"
   xmlns:svg="http://www.w3.org/2000/svg"
   xmlns="http://www.w3.org/2000/svg"
   xmlns:sodipodi="http://sodipodi.sourceforge.net/DTD/sodipodi-0.dtd"
   xmlns:inkscape="http://www.inkscape.org/namespaces/inkscape"
   version="1.1"
   x="0px"
   y="0px"
   width="100px"
   height="100px"
   viewBox="0 0 100 100"
   enable-background="new 0 0 100 100"
   xml:space="preserve"
   id="svg2"
   inkscape:version="1.0.2 (e86c870879, 2021-01-15, custom)"
   sodipodi:docname="staged.svg"
   inkscape:export-filename="C:\Users\wilkie\occam\configuration.png"
   inkscape:export-xdpi="18"
   inkscape:export-ydpi="18"><metadata
     id="metadata122"><rdf:RDF><cc:Work
         rdf:about=""><dc:format>image/svg+xml</dc:format><dc:type
           rdf:resource="http://purl.org/dc/dcmitype/StillImage" /><dc:title></dc:title></cc:Work></rdf:RDF></metadata><defs
     id="defs120" /><sodipodi:namedview
     pagecolor="#ffffff"
     bordercolor="#666666"
     borderopacity="1"
     objecttolerance="10"
     gridtolerance="10"
     guidetolerance="10"
     inkscape:pageopacity="0"
     inkscape:pageshadow="2"
     inkscape:window-width="1920"
     inkscape:window-height="1009"
     id="namedview118"
     showgrid="false"
     inkscape:zoom="3.337544"
     inkscape:cx="-51.659307"
     inkscape:cy="49.210272"
     inkscape:window-x="0"
     inkscape:window-y="1114"
     inkscape:window-maximized="1"
     inkscape:current-layer="svg2"
     showguides="true"
     inkscape:guide-bbox="true"
     inkscape:document-rotation="0" /><path
     id="path5322"
     style="fill:#008080;fill-opacity:1;stroke:none;stroke-width:3.25191;stroke-miterlimit:4;stroke-dasharray:none;stroke-opacity:1"
     d="M 60.083878,1.3604625 C 53.185658,11.205624 47.78425,9.7846501 40.702723,1.2020511 L 22.738315,8.4782298 C 25.09719,19.720279 19.626228,23.513711 8.9200855,22.069375 L 1.3604625,39.916122 C 11.094174,45.703992 13.73946,51.96556 1.2020511,59.297277 L 8.4782298,77.261685 C 23.845981,75.889627 22.542949,83.761126 22.069375,91.079915 l 17.846747,7.559623 c 8.071832,-11.354859 13.942875,-7.234092 19.381155,0.158411 L 77.261685,91.52177 C 76.492463,83.398661 76.225744,74.853136 91.079915,77.930625 L 98.639538,60.083878 C 86.829401,51.554861 92.527703,46.291155 98.797949,40.702723 L 91.52177,22.738315 C 77.760804,24.760473 75.238155,18.662441 77.930625,8.9200854 Z M 59.95992,14.802689 c 0.06175,0.01086 0.132912,0.03254 0.22441,0.06249 0.158008,0.05264 0.251984,0.138791 0.263685,0.305994 0.02156,0.279376 0.03367,0.561513 0.06113,0.840456 0.02832,0.314726 0.04951,0.630882 0.106,0.941513 0.228401,1.258757 1.920677,1.830604 2.872021,1.15592 0.306342,-0.215535 0.574498,-0.48676 0.855173,-0.738253 0.198592,-0.179085 0.394549,-0.361039 0.583044,-0.551323 0.206435,-0.208924 0.374918,-0.03055 0.559394,0.03422 0.184475,0.06474 0.228115,0.185284 0.210766,0.368824 -0.04781,0.534104 -0.09241,1.067779 -0.118907,1.60299 -0.07129,1.362235 1.616371,2.339684 2.797878,1.677113 0.359834,-0.201961 0.694034,-0.451969 1.03863,-0.680275 0.121098,-0.08088 0.236648,-0.169401 0.360265,-0.24645 0.296748,-0.185236 0.590768,-0.143228 0.779302,0.137627 0.05618,0.08451 0.05757,0.234426 0.03284,0.34191 -0.09547,0.416577 -0.223104,0.824703 -0.315161,1.241162 -0.05222,0.235925 -0.09025,0.482835 -0.08207,0.723002 0.03915,1.173145 1.487569,2.134276 2.579577,1.671749 0.324708,-0.136377 0.642082,-0.288872 0.963344,-0.432587 0.209919,-0.09394 0.423653,-0.178502 0.629036,-0.282483 0.196277,-0.10002 0.329037,-0.03217 0.488865,0.09537 0.220103,0.17646 0.23982,0.360867 0.138256,0.603124 -0.228994,0.545393 -0.451642,1.094237 -0.670016,1.644316 -0.03486,0.088 -0.05396,0.187634 -0.05446,0.281925 -0.0084,1.198896 1.086688,2.161231 2.257422,1.946044 0.58257,-0.106101 1.149267,-0.300648 1.722332,-0.456748 0.17653,-0.04869 0.312412,-0.03674 0.440309,0.137162 0.247745,0.338687 0.265067,0.330413 0.04529,0.695552 -0.290106,0.484697 -0.608141,0.953255 -0.875114,1.450202 -0.233139,0.433579 -0.203971,0.897696 -0.0029,1.3418 0.374361,0.830287 1.014006,1.263492 1.929341,1.209818 0.532275,-0.03124 1.061907,-0.09871 1.587877,-0.18343 0.314571,-0.05154 0.421084,0.123263 0.55452,0.346342 0.138446,0.230742 0.02134,0.369096 -0.110875,0.51557 -0.228848,0.253132 -0.466915,0.497889 -0.697815,0.748938 -0.103336,0.111059 -0.259084,0.197149 -0.201975,0.39695 0.007,0.02629 -0.0358,0.08956 -0.06929,0.10332 -0.396943,0.165286 -0.435108,0.534059 -0.438607,0.874482 -0.01217,1.184875 0.815039,2.031057 1.994155,2.070986 0.484232,0.01681 0.970187,0.03453 1.453444,0.03204 0.322326,-0.0011 0.374266,0.221682 0.463724,0.457172 0.09633,0.254303 -0.06392,0.364632 -0.212167,0.484598 -0.350064,0.28265 -0.717436,0.543421 -1.062302,0.832944 -0.557117,0.466604 -0.805973,1.057238 -0.652266,1.789616 0.169778,0.798642 0.615128,1.338404 1.42296,1.535683 0.259387,0.06287 0.524824,0.108811 0.786019,0.162957 l 0.0012,-0.0058 c 0.308831,0.06403 0.615263,0.139292 0.926425,0.188075 0.301307,0.04839 0.272829,0.295796 0.333582,0.498009 0.06264,0.205089 -0.02853,0.325003 -0.194069,0.416543 -0.192511,0.105822 -0.388734,0.205199 -0.577936,0.315018 -0.301918,0.174223 -0.607681,0.340221 -0.895124,0.53649 -1.024478,0.695954 -0.997666,2.401432 0.0816,3.05079 0.469478,0.28364 1.022082,0.423024 1.539669,0.62638 0.100844,0.04079 0.208693,0.06727 0.308745,0.10789 0.397358,0.160216 0.490408,0.29644 0.410197,0.715354 -0.02179,0.113063 -0.160591,0.238769 -0.27593,0.29186 -0.242314,0.110401 -0.506498,0.173106 -0.758359,0.261655 -0.216324,0.07687 -0.436022,0.150648 -0.645641,0.247127 -0.698581,0.322179 -1.114132,0.855074 -1.15226,1.642076 -0.03727,0.802912 0.285615,1.424031 0.979246,1.828662 0.470495,0.27474 0.943679,0.55068 1.435136,0.784226 0.345347,0.163507 0.19718,0.415107 0.191525,0.654062 -0.0062,0.249606 -0.178963,0.293097 -0.36808,0.322622 -0.360237,0.05614 -0.721758,0.101381 -1.079839,0.167081 -0.54914,0.100611 -1.042397,0.293545 -1.40806,0.759267 -0.531385,0.673977 -0.605793,1.941627 0.199894,2.624523 0.443706,0.376003 0.914619,0.715548 1.369856,1.079865 0.262972,0.20936 0.304241,0.608198 0.07101,0.850484 -0.06954,0.07584 -0.213049,0.106037 -0.324069,0.110339 -0.388395,0.01221 -0.776886,-6.65e-4 -1.164128,0.006 -0.698318,0.01338 -1.322451,0.200851 -1.739428,0.818227 -0.465028,0.689393 -0.514305,1.489925 -0.06347,2.163013 0.1871,0.279746 0.424135,0.529678 0.651819,0.781404 0.187293,0.20692 0.399565,0.390792 0.590693,0.595194 0.283462,0.302208 0.291028,0.64599 -0.0075,0.911987 -0.08625,0.07651 -0.270105,0.07602 -0.40339,0.05998 -0.457418,-0.05426 -0.91037,-0.152797 -1.368038,-0.19386 -0.758819,-0.06623 -1.38929,0.190678 -1.807902,0.85988 -0.393053,0.629794 -0.434603,1.287226 -0.08415,1.945299 0.158975,0.299581 0.366009,0.574602 0.558997,0.853912 0.130955,0.191101 0.281552,0.367155 0.41092,0.557925 0.226613,0.336792 0.189066,0.642051 -0.119204,0.882856 -0.05389,0.04431 -0.161575,0.05564 -0.233158,0.03743 -0.318432,-0.07763 -0.631406,-0.169067 -0.945453,-0.259839 -0.500503,-0.145994 -1.0021,-0.319549 -1.533184,-0.18621 -1.157564,0.287469 -1.78447,1.479284 -1.366992,2.600871 0.10223,0.273743 0.241819,0.533391 0.369406,0.796656 0.117574,0.239665 0.249369,0.473386 0.362316,0.7154 0.157786,0.333286 0.06052,0.635277 -0.269213,0.807873 -0.0715,0.03732 -0.193045,0.0284 -0.272314,-0.0046 -0.258141,-0.104859 -0.504764,-0.235344 -0.75983,-0.347019 -0.298973,-0.131536 -0.592941,-0.27998 -0.90247,-0.380579 -1.397534,-0.45617 -2.833806,0.873655 -2.415274,2.365591 0.142107,0.504749 0.325318,0.994701 0.480188,1.493816 0.10524,0.343095 -0.0909,0.710888 -0.429139,0.780702 -0.09093,0.01924 -0.215922,-0.03459 -0.300442,-0.09022 -0.314048,-0.206652 -0.612064,-0.435215 -0.925929,-0.642707 -0.416423,-0.275947 -0.843987,-0.525439 -1.374171,-0.520261 -1.114277,0.01078 -2.023517,0.954729 -1.935153,2.070188 0.04093,0.533455 0.170513,1.058686 0.251229,1.587971 0.0704,0.459246 -0.05537,0.658785 -0.499105,0.762205 -0.08267,0.0193 -0.212127,-0.03583 -0.282764,-0.09852 -0.334528,-0.299545 -0.651919,-0.617244 -0.983704,-0.922016 -0.4247,-0.387788 -0.905473,-0.658888 -1.501347,-0.628408 -1.051599,0.05192 -1.964822,0.892379 -1.944484,1.980487 0.0098,0.512088 -0.008,1.026457 0.02483,1.535051 0.01945,0.309574 -0.149616,0.387548 -0.380672,0.479584 -0.228512,0.09174 -0.378957,0.06292 -0.531453,-0.140101 -0.297415,-0.398666 -0.614184,-0.784906 -0.935262,-1.165293 -0.504147,-0.599683 -1.138199,-0.837138 -1.915511,-0.670391 -0.821261,0.175025 -1.343584,0.673896 -1.536103,1.482713 -0.12418,0.519098 -0.169002,1.058411 -0.261286,1.587434 -0.06184,0.358138 -0.352733,0.57258 -0.68907,0.485461 -0.09588,-0.02485 -0.182379,-0.147176 -0.242274,-0.245706 -0.301645,-0.49808 -0.556469,-1.030245 -0.893442,-1.5017 -0.823707,-1.151157 -2.604798,-1.02535 -3.246866,0.238423 -0.246058,0.483895 -0.364867,1.029134 -0.540248,1.54755 -0.02355,0.06963 -0.03473,0.142506 -0.05971,0.211024 -0.10473,0.309496 -0.491787,0.488658 -0.781939,0.346528 -0.07433,-0.03694 -0.12685,-0.141113 -0.160436,-0.226744 -0.172443,-0.442309 -0.325271,-0.892552 -0.505843,-1.331584 -0.167748,-0.409044 -0.397276,-0.777358 -0.771816,-1.039655 -0.686427,-0.479319 -2.101369,-0.546731 -2.789647,0.640389 -0.267377,0.462914 -0.477937,0.958575 -0.700802,1.446447 -0.100596,0.217619 -0.237655,0.307192 -0.483479,0.282739 -0.385335,-0.03849 -0.43383,-0.0656 -0.519582,-0.466756 -0.110728,-0.512327 -0.199561,-1.031823 -0.342001,-1.534981 -0.214064,-0.764768 -0.754408,-1.203598 -1.514969,-1.361277 -0.746271,-0.154716 -1.377772,0.07614 -1.850233,0.669591 -0.311068,0.390099 -0.561933,0.825881 -0.850229,1.233955 -0.286216,0.406017 -0.327799,0.40497 -0.781497,0.228933 -0.173168,-0.06737 -0.24164,-0.159821 -0.249226,-0.346878 -0.02144,-0.523617 -0.06121,-1.045509 -0.09777,-1.568123 -0.105587,-1.515652 -1.62275,-2.090034 -2.561478,-1.739803 -0.492802,0.18433 -0.848685,0.555645 -1.185679,0.94699 -0.21387,0.248781 -0.436016,0.492441 -0.660149,0.730816 -0.04487,0.04866 -0.121036,0.08716 -0.186419,0.09101 -0.372247,0.02219 -0.679303,-0.316792 -0.64058,-0.691309 0.04849,-0.473519 0.120158,-0.942613 0.138287,-1.417456 0.04767,-1.240441 -0.571588,-1.787458 -1.496799,-2.09354 -0.37265,-0.123627 -0.780245,-0.08978 -1.133038,0.106188 -0.30427,0.169596 -0.584517,0.384955 -0.866788,0.59223 -0.264856,0.19516 -0.523148,0.398996 -0.774593,0.609351 -0.160274,0.134044 -0.297665,0.109575 -0.460086,0.0063 -0.404341,-0.258541 -0.408708,-0.253302 -0.307439,-0.729953 0.121115,-0.571899 0.288704,-1.137651 0.35987,-1.716594 0.169839,-1.382371 -1.336419,-2.502218 -2.608286,-1.94698 -0.428903,0.187642 -0.82377,0.454388 -1.235168,0.685405 -0.05235,0.02888 -0.105159,0.05979 -0.159575,0.0866 -0.339587,0.17221 -0.759031,0.02244 -0.883298,-0.328733 -0.02367,-0.0695 0.0021,-0.168579 0.03235,-0.242626 0.174271,-0.429224 0.363504,-0.851557 0.533017,-1.281766 0.184253,-0.469382 0.321482,-0.946454 0.187236,-1.461164 -0.271224,-1.048221 -1.26182,-1.673435 -2.31237,-1.430849 -0.293058,0.06758 -0.573712,0.196167 -0.856712,0.3031 -0.170594,0.064 -0.331643,0.148015 -0.50363,0.206755 -0.488881,0.169411 -0.534808,0.144353 -0.820327,-0.295733 -0.08354,-0.128277 -0.09847,-0.235225 -0.01581,-0.366305 0.207607,-0.330402 0.421468,-0.655888 0.606111,-0.999329 0.183982,-0.340265 0.390144,-0.682853 0.487351,-1.051875 0.335378,-1.270219 -0.900059,-2.688855 -2.360063,-2.220647 -0.421544,0.136172 -0.87638,0.159573 -1.312554,0.250483 -0.253353,0.05181 -0.308368,-0.135086 -0.394408,-0.291206 -0.09264,-0.168249 -0.231665,-0.328168 -0.05565,-0.530149 0.239972,-0.274837 0.487749,-0.545728 0.711435,-0.833876 0.230427,-0.29669 0.485769,-0.588814 0.646181,-0.923204 0.520268,-1.083669 -0.123181,-2.375851 -1.297484,-2.602742 -0.372537,-0.07226 -0.767566,-0.03998 -1.152699,-0.03951 -0.278439,0.0011 -0.556063,0.04496 -0.832992,0.03475 -0.09443,-0.0039 -0.224671,-0.09207 -0.272245,-0.178116 -0.237093,-0.430045 -0.212311,-0.539564 0.159761,-0.876441 0.370783,-0.33466 0.756822,-0.653161 1.116714,-0.999188 0.64951,-0.624646 0.749781,-1.386828 0.425618,-2.187666 -0.300096,-0.741203 -0.924853,-1.054758 -1.693993,-1.123129 -0.398558,-0.03461 -0.795586,-0.08964 -1.19461,-0.125987 -0.199745,-0.01906 -0.312511,-0.108432 -0.32759,-0.315253 -0.01503,-0.21509 -0.175873,-0.447722 0.106638,-0.620173 0.456101,-0.278884 0.913444,-0.557089 1.356657,-0.857689 0.855261,-0.578678 1.150488,-1.594663 0.735856,-2.51031 -0.288749,-0.636171 -0.850928,-0.903259 -1.480263,-1.066851 -0.349667,-0.09071 -0.70359,-0.174317 -1.056191,-0.254871 -0.202581,-0.04532 -0.260773,-0.165336 -0.267486,-0.364628 -0.01587,-0.47858 -0.0275,-0.486507 0.406281,-0.689696 0.397089,-0.185958 0.805752,-0.341876 1.203777,-0.524362 0.852202,-0.39218 1.280046,-1.065709 1.23643,-2.009595 -0.04101,-0.884557 -0.595553,-1.37057 -1.349096,-1.689916 -0.334835,-0.142284 -0.663079,-0.303096 -1.000519,-0.436811 -0.295277,-0.117523 -0.181512,-0.350403 -0.181472,-0.558229 4.95e-4,-0.206078 0.0716,-0.344899 0.288572,-0.40094 0.53941,-0.141546 1.080122,-0.283712 1.61535,-0.441029 0.920847,-0.27196 1.438607,-1.116004 1.372077,-2.125088 -0.04858,-0.736251 -0.545968,-1.167969 -1.109622,-1.536546 -0.252935,-0.165878 -0.505439,-0.33337 -0.766893,-0.486116 -0.226013,-0.13214 -0.276903,-0.298592 -0.199152,-0.549925 0.113548,-0.363976 0.120485,-0.392837 0.4811,-0.434827 0.505757,-0.0591 1.015192,-0.09504 1.518818,-0.167827 0.892342,-0.13048 1.425656,-0.664442 1.655958,-1.531667 0.22068,-0.832786 -0.137363,-1.444054 -0.719268,-1.976223 -0.267799,-0.245967 -0.525591,-0.503743 -0.801879,-0.740706 -0.184767,-0.159198 -0.131336,-0.324461 -0.04366,-0.491758 0.0917,-0.174748 0.142959,-0.390857 0.430419,-0.363554 0.494683,0.04626 0.990652,0.07325 1.487124,0.09089 1.112806,0.04026 1.932839,-0.618892 2.119472,-1.698867 0.120172,-0.695471 -0.223785,-1.221141 -0.62796,-1.723918 -0.190267,-0.236517 -0.368247,-0.484296 -0.5638,-0.715284 -0.193198,-0.226361 -0.04806,-0.403535 0.05933,-0.594075 0.10354,-0.183889 0.239896,-0.249559 0.452646,-0.201367 0.50851,0.115333 1.0208,0.220264 1.533395,0.319896 0.827639,0.161648 1.475975,-0.144819 1.968807,-0.808571 0.471959,-0.634961 0.471967,-1.313348 0.137795,-2.001994 -0.186373,-0.383098 -0.406416,-0.750563 -0.603796,-1.128492 -0.0783,-0.149544 -0.168437,-0.306743 0.0025,-0.464237 0.17189,-0.158122 0.289919,-0.390128 0.603241,-0.263894 0.528015,0.212971 1.05915,0.416104 1.601612,0.587359 1.335592,0.423454 2.722084,-0.860883 2.404011,-2.234284 -0.109103,-0.472239 -0.302725,-0.923066 -0.452599,-1.386369 -0.05868,-0.180256 -0.150486,-0.358119 0.06346,-0.527395 0.342996,-0.272521 0.369758,-0.29526 0.699866,-0.114211 0.434809,0.239189 0.86072,0.500101 1.300681,0.730422 0.688063,0.359591 1.35678,0.28682 1.993668,-0.14917 0.6313,-0.433006 0.907979,-1.035899 0.816623,-1.793441 -0.05211,-0.435583 -0.149603,-0.863849 -0.213821,-1.296974 -0.0551,-0.373272 0.168642,-0.666704 0.532317,-0.691492 0.07891,-0.0052 0.174168,0.06336 0.244701,0.11855 0.410683,0.323612 0.810225,0.65853 1.223483,0.97771 1.002362,0.776663 2.571317,0.292309 2.988333,-0.896402 0.147658,-0.420664 0.10713,-0.909866 0.140242,-1.369181 0.01442,-0.193257 0.0028,-0.389751 -0.0066,-0.583812 -0.0094,-0.206465 -0.0021,-0.37941 0.24876,-0.459061 0.240166,-0.07606 0.450387,-0.170764 0.645571,0.08995 0.190314,0.252258 0.402824,0.486154 0.612009,0.723282 0.363772,0.41408 0.742893,0.804994 1.313858,0.926635 1.100625,0.234803 2.099542,-0.372858 2.369141,-1.469581 0.11639,-0.473516 0.190818,-0.959953 0.274813,-1.441013 0.03243,-0.180411 0.07024,-0.323618 0.295079,-0.345736 0.224842,-0.02212 0.44326,-0.124937 0.602214,0.154771 0.234193,0.412056 0.487476,0.812114 0.744178,1.21145 0.437587,0.681101 1.063274,0.960359 1.864646,0.877261 0.778619,-0.08119 1.304871,-0.490854 1.588228,-1.214595 0.172773,-0.441954 0.334453,-0.890058 0.474081,-1.343851 0.07487,-0.245307 0.218283,-0.318296 0.451575,-0.321269 0.236633,-0.0031 0.408126,0.04327 0.50237,0.299626 0.159467,0.432999 0.339286,0.861968 0.532244,1.281207 0.381211,0.829223 1.051313,1.178497 1.94105,1.124483 0.551189,-0.03063 1.02362,-0.264132 1.331212,-0.725334 0.288469,-0.432871 0.51513,-0.908711 0.773382,-1.36358 0.229925,-0.406096 0.232466,-0.393147 0.679319,-0.351845 0.175433,0.01652 0.25908,0.07858 0.297807,0.247243 0.110197,0.474951 0.222216,0.950145 0.345476,1.422007 0.278253,1.066228 1.186134,1.510462 2.081593,1.456806 0.543419,-0.03307 0.976557,-0.288193 1.312275,-0.701333 0.292079,-0.358431 0.557004,-0.739486 0.841668,-1.106076 0.184858,-0.238651 0.270185,-0.304978 0.455446,-0.272595 z m -0.769116,2.718838 c -0.17094,-0.02993 -0.250627,0.03155 -0.421208,0.251766 -0.262677,0.338276 -0.506427,0.689227 -0.775945,1.01997 -0.309785,0.381229 -0.709703,0.615985 -1.211148,0.646503 -0.82629,0.04951 -1.662836,-0.359565 -1.919593,-1.343435 -0.11374,-0.435414 -0.218907,-0.872866 -0.320592,-1.311131 -0.03574,-0.155636 -0.113837,-0.213479 -0.27572,-0.228702 -0.412337,-0.03811 -0.413722,-0.04971 -0.625886,0.325024 -0.238304,0.419733 -0.44707,0.856932 -0.713256,1.256368 -0.283833,0.425575 -0.719558,0.642629 -1.228172,0.670897 -0.821012,0.04984 -1.439739,-0.272459 -1.791506,-1.037626 -0.178054,-0.38686 -0.343651,-0.783304 -0.490801,-1.182858 -0.08696,-0.236552 -0.244716,-0.280383 -0.46307,-0.277516 -0.215274,0.0028 -0.347854,0.07216 -0.416941,0.298527 -0.128837,0.418744 -0.277151,0.832112 -0.436578,1.239927 -0.261472,0.667838 -0.746515,1.045547 -1.464992,1.120465 -0.739469,0.07668 -1.319219,-0.18151 -1.723006,-0.809997 -0.236873,-0.368491 -0.469746,-0.737349 -0.685848,-1.117577 -0.146676,-0.258102 -0.347326,-0.163353 -0.554799,-0.142945 -0.207475,0.02041 -0.241595,0.152227 -0.271524,0.318703 -0.0775,0.443901 -0.146333,0.892755 -0.253729,1.329694 -0.248779,1.012009 -1.172315,1.572224 -2.187924,1.355558 -0.526851,-0.112291 -0.877176,-0.473731 -1.212847,-0.855827 -0.193029,-0.218812 -0.388538,-0.432717 -0.564151,-0.66549 -0.180108,-0.240583 -0.37344,-0.153665 -0.595054,-0.08348 -0.23147,0.0735 -0.237995,0.232673 -0.229356,0.423189 0.0087,0.179072 0.01716,0.36103 0.0039,0.53936 -0.03053,0.423837 0.0079,0.875754 -0.128397,1.263925 -0.384805,1.096891 -1.831546,1.543457 -2.756482,0.826784 -0.381338,-0.294525 -0.75044,-0.603739 -1.1294,-0.902354 -0.06509,-0.05093 -0.153953,-0.113626 -0.226766,-0.108843 -0.335583,0.02287 -0.541786,0.291803 -0.490943,0.636241 0.05926,0.399668 0.148426,0.795706 0.196515,1.197642 0.0843,0.699027 -0.169527,1.255672 -0.752066,1.655232 -0.587693,0.402312 -1.204682,0.469043 -1.839597,0.137228 -0.405976,-0.21253 -0.797584,-0.452682 -1.198808,-0.673396 -0.30461,-0.167064 -0.33159,-0.146473 -0.64809,0.104997 -0.197422,0.156201 -0.113102,0.320109 -0.05896,0.486441 0.138298,0.427515 0.317802,0.845796 0.418477,1.281557 0.293505,1.267315 -0.985725,2.450133 -2.218151,2.059388 -0.500561,-0.158025 -0.990215,-0.34515 -1.477444,-0.541671 -0.28912,-0.116477 -0.398518,0.09763 -0.557131,0.243534 -0.157729,0.145329 -0.07525,0.290236 -0.003,0.428228 0.182136,0.348734 0.386086,0.68771 0.558063,1.041218 0.308362,0.635453 0.3076,1.262546 -0.127903,1.84846 -0.454765,0.612483 -1.052195,0.893687 -1.815904,0.744526 -0.473001,-0.09193 -0.945995,-0.18693 -1.415218,-0.293401 -0.196315,-0.04448 -0.321749,0.01507 -0.417291,0.184763 -0.0991,0.175822 -0.234225,0.340021 -0.05596,0.548898 0.180448,0.213144 0.345714,0.442345 0.521283,0.660592 0.372956,0.463941 0.69076,0.948528 0.579869,1.59028 -0.172217,0.996553 -0.927358,1.602727 -1.954208,1.565577 -0.458123,-0.0163 -0.918868,-0.03896 -1.375338,-0.08167 -0.265258,-0.02519 -0.311886,0.173431 -0.396508,0.33468 -0.0809,0.154376 -0.128868,0.306538 0.04163,0.45344 0.254948,0.218659 0.492332,0.458908 0.739444,0.685874 0.536958,0.491064 0.867301,1.052621 0.663668,1.82108 -0.212514,0.800239 -0.704549,1.294188 -1.527963,1.414588 -0.464724,0.06716 -0.935584,0.09956 -1.402275,0.154092 -0.332761,0.03875 -0.33931,0.06476 -0.444087,0.400611 -0.07174,0.231919 -0.02446,0.384984 0.184131,0.506918 0.241259,0.140952 0.475144,0.297018 0.708543,0.450083 0.520114,0.340106 0.977923,0.737426 1.022742,1.416806 0.06139,0.93114 -0.414718,1.710949 -1.264441,1.9619 -0.493886,0.145167 -0.99479,0.27604 -1.492534,0.406652 -0.200211,0.05171 -0.263766,0.179926 -0.264223,0.370084 -7.4e-5,0.191772 -0.10601,0.406777 0.166453,0.515221 0.311373,0.123388 0.614792,0.271653 0.923764,0.402947 0.695335,0.294677 1.206441,0.744243 1.244285,1.560475 0.04024,0.870977 -0.353966,1.492101 -1.140341,1.853986 -0.36728,0.168391 -0.744745,0.310135 -1.111162,0.481728 -0.400277,0.187496 -0.388001,0.195072 -0.37335,0.636685 0.0062,0.183898 0.05814,0.296228 0.245074,0.338038 0.325371,0.0743 0.651693,0.152208 0.97435,0.235912 0.580725,0.150951 1.099492,0.396276 1.365937,0.983308 0.382602,0.844919 0.111788,1.781002 -0.67741,2.314983 -0.408978,0.277381 -0.83228,0.534041 -1.253151,0.791383 -0.260683,0.15913 -0.112897,0.375401 -0.09903,0.573878 0.01391,0.190846 0.118551,0.272597 0.302867,0.290181 0.368202,0.03355 0.733056,0.08458 1.100829,0.11652 0.709731,0.06309 1.287055,0.354378 1.56397,1.038329 0.299125,0.738978 0.207101,1.440663 -0.392243,2.017059 -0.332092,0.319298 -0.688602,0.612458 -1.030745,0.921267 -0.343332,0.310855 -0.364662,0.412678 -0.145886,0.809507 0.0439,0.07939 0.162234,0.159852 0.249367,0.163398 0.255539,0.0094 0.511292,-0.02925 0.768225,-0.03022 0.355385,-4.9e-4 0.720101,-0.03163 1.063862,0.03506 1.083597,0.209361 1.677466,1.402505 1.197383,2.40247 -0.148021,0.308559 -0.382873,0.578156 -0.595499,0.851929 -0.206408,0.26589 -0.434772,0.515922 -0.656208,0.769529 -0.16242,0.18638 -0.0353,0.333871 0.05019,0.489123 0.0794,0.144064 0.131681,0.315062 0.365465,0.267256 0.402484,-0.08389 0.821534,-0.104095 1.210517,-0.229751 1.34723,-0.432042 2.488039,0.875279 2.178566,2.047384 -0.0897,0.340518 -0.28101,0.65771 -0.45078,0.971691 -0.170381,0.316914 -0.368805,0.618161 -0.560375,0.923041 -0.07628,0.120957 -0.06146,0.219974 0.01563,0.338341 0.263465,0.406092 0.306169,0.429015 0.757287,0.27269 0.158702,-0.0542 0.307427,-0.1338 0.464844,-0.192855 0.261139,-0.09867 0.521382,-0.216291 0.791806,-0.278657 0.969403,-0.223848 1.881694,0.35239 2.131969,1.319645 0.123875,0.474954 -0.0019,0.915531 -0.17189,1.348657 -0.156415,0.396979 -0.332067,0.788302 -0.49288,1.184371 -0.02792,0.06833 -0.05023,0.159373 -0.02839,0.223501 0.114667,0.324051 0.501559,0.461496 0.814916,0.302588 0.05021,-0.02475 0.0978,-0.05276 0.146116,-0.07941 0.379622,-0.213173 0.7448,-0.460061 1.140573,-0.633209 1.173625,-0.51235 2.562663,0.521714 2.40594,1.797318 -0.06567,0.534222 -0.22073,1.056915 -0.332514,1.584634 -0.09343,0.439836 -0.08787,0.434919 0.285236,0.673488 0.149876,0.09525 0.276181,0.117864 0.424075,-0.0058 0.232023,-0.194106 0.470489,-0.381805 0.714887,-0.561889 0.260469,-0.191265 0.519061,-0.391774 0.79983,-0.548268 0.32554,-0.180832 0.701781,-0.21245 1.045648,-0.09837 0.853743,0.282438 1.424317,0.78913 1.380324,1.933752 -0.0168,0.438165 -0.0828,0.871038 -0.127549,1.307981 -0.03572,0.345589 0.248436,0.657821 0.59193,0.637341 0.06032,-0.0036 0.129647,-0.03933 0.171047,-0.08422 0.20682,-0.219961 0.41107,-0.444157 0.608419,-0.673719 0.310965,-0.361119 0.64003,-0.703994 1.094768,-0.874085 0.866217,-0.323177 2.266574,0.206535 2.364005,1.605114 0.03373,0.482246 0.06925,0.963466 0.08904,1.446636 0.007,0.172606 0.07124,0.257005 0.231034,0.31917 0.418654,0.162441 0.457497,0.165218 0.721603,-0.209436 0.266029,-0.376551 0.497795,-0.779834 0.784833,-1.139802 0.435968,-0.547612 1.017217,-0.760508 1.705844,-0.617743 0.701814,0.145499 1.20134,0.551725 1.398868,1.257419 0.131437,0.464292 0.2131,0.940997 0.315274,1.413751 0.07912,0.370167 0.123265,0.396865 0.478837,0.432379 0.226833,0.02257 0.354505,-0.0615 0.447328,-0.262309 0.205651,-0.450189 0.398899,-0.907061 0.64562,-1.334219 0.635116,-1.095422 1.940626,-1.033637 2.574031,-0.591343 0.345608,0.242039 0.559745,0.582516 0.714534,0.959963 0.166625,0.405122 0.306068,0.821263 0.465192,1.229409 0.03099,0.07901 0.07973,0.174185 0.148309,0.20827 0.267739,0.131153 0.623415,-0.03188 0.720064,-0.317468 0.02301,-0.06323 0.03483,-0.131459 0.05653,-0.195723 0.16183,-0.478373 0.27252,-0.981809 0.499573,-1.428325 0.592473,-1.166156 2.235763,-1.282891 2.995843,-0.220652 0.310946,0.435039 0.545433,0.925923 0.823778,1.38553 0.05528,0.09092 0.133637,0.204635 0.222101,0.22756 0.310356,0.08038 0.580425,-0.117809 0.63748,-0.448284 0.08516,-0.488158 0.125135,-0.985243 0.239735,-1.464243 0.177648,-0.746342 0.660639,-1.205971 1.418463,-1.367475 0.71727,-0.153867 1.301668,0.06431 1.766877,0.617633 0.296275,0.351006 0.587914,0.706511 0.862353,1.074383 0.14072,0.187336 0.280827,0.214517 0.491689,0.12986 0.213207,-0.08492 0.369257,-0.15812 0.351311,-0.443782 -0.03031,-0.469308 -0.01476,-0.942617 -0.02377,-1.41515 -0.01877,-1.00406 0.824803,-1.780023 1.795172,-1.827934 0.549847,-0.02813 0.993725,0.222649 1.385621,0.580479 0.306157,0.281231 0.600056,0.574218 0.908743,0.850626 0.06518,0.05784 0.182023,0.109253 0.258299,0.09145 0.409462,-0.09543 0.526118,-0.280477 0.46116,-0.704251 -0.07449,-0.488401 -0.195173,-0.972251 -0.232945,-1.4645 -0.08154,-1.029297 0.759873,-1.89925 1.788082,-1.909192 0.48923,-0.0048 0.882956,0.223506 1.267213,0.478141 0.28962,0.191464 0.566776,0.401737 0.856546,0.592466 0.07799,0.05133 0.19207,0.1009 0.275978,0.08315 0.312107,-0.06442 0.493248,-0.40114 0.396136,-0.717732 -0.142907,-0.460562 -0.312699,-0.9148 -0.443828,-1.380562 -0.386203,-1.376694 0.937848,-2.602067 2.227433,-2.181133 0.285619,0.09284 0.557089,0.228839 0.832968,0.350214 0.235364,0.103042 0.463603,0.222277 0.701803,0.319032 0.07315,0.03045 0.186021,0.04084 0.251999,0.0064 0.304264,-0.159265 0.39408,-0.438804 0.24848,-0.746348 -0.104222,-0.22332 -0.225486,-0.438507 -0.333978,-0.659659 -0.117731,-0.24293 -0.247926,-0.482578 -0.342259,-0.735176 -0.385231,-1.034952 0.193636,-2.136013 1.261781,-2.401278 0.490062,-0.123038 0.952305,0.03876 1.414148,0.1735 0.289787,0.08376 0.578221,0.167018 0.872057,0.238638 0.06607,0.01677 0.165022,0.0056 0.214754,-0.03526 0.284457,-0.222205 0.322085,-0.503558 0.112972,-0.814336 -0.119374,-0.176035 -0.261277,-0.337715 -0.382118,-0.514055 -0.17808,-0.257735 -0.368338,-0.510512 -0.515033,-0.786954 -0.323382,-0.60724 -0.285724,-1.214047 0.07697,-1.795191 0.386277,-0.617512 0.970491,-0.855695 1.670696,-0.794578 0.422316,0.03789 0.837268,0.129245 1.259355,0.179307 0.122992,0.01476 0.295047,0.01464 0.37463,-0.05597 0.275523,-0.24545 0.268241,-0.561497 0.0066,-0.840362 -0.176365,-0.188613 -0.373368,-0.35913 -0.546193,-0.550066 -0.210099,-0.232281 -0.427885,-0.462767 -0.600534,-0.720904 -0.416017,-0.621097 -0.370658,-1.358366 0.05845,-1.994507 0.384767,-0.569689 0.960945,-0.745919 1.605324,-0.758264 0.357328,-0.0061 0.715311,0.0085 1.073705,-0.0028 0.10245,-0.004 0.234569,-0.03365 0.298741,-0.103622 0.21521,-0.223571 0.177679,-0.590222 -0.06497,-0.78341 -0.420073,-0.336175 -0.855657,-0.651345 -1.26509,-0.998304 -0.743454,-0.630147 -0.674818,-1.797949 -0.184479,-2.419867 0.337418,-0.429748 0.79368,-0.608959 1.300403,-0.701799 0.330422,-0.06063 0.66498,-0.102447 0.997395,-0.154256 0.174507,-0.02724 0.333058,-0.06645 0.338784,-0.296779 0.0052,-0.220499 0.142886,-0.454044 -0.175781,-0.604921 -0.453497,-0.215507 -0.890341,-0.467878 -1.324493,-0.721395 -0.640053,-0.373377 -0.939183,-0.946669 -0.904779,-1.687559 0.03518,-0.726212 0.417894,-1.219774 1.062514,-1.517069 0.193429,-0.08902 0.396094,-0.156623 0.595708,-0.227558 0.232407,-0.08171 0.476385,-0.137974 0.699982,-0.239848 0.106433,-0.049 0.235375,-0.165839 0.255478,-0.27017 0.07401,-0.386556 -0.01327,-0.511376 -0.379949,-0.659216 -0.09233,-0.03749 -0.189311,-0.06279 -0.282367,-0.100429 -0.477607,-0.187644 -0.988814,-0.316327 -1.422027,-0.578055 -0.995903,-0.599202 -1.019787,-2.173736 -0.07444,-2.815932 0.265241,-0.181108 0.54614,-0.334465 0.824737,-0.495232 0.174588,-0.101336 0.356821,-0.190479 0.534462,-0.288127 0.152754,-0.08447 0.235964,-0.198679 0.178163,-0.387926 -0.05605,-0.186593 -0.03017,-0.412193 -0.308209,-0.456844 -0.287126,-0.04501 -0.570687,-0.114325 -0.855662,-0.173406 l -7.95e-4,0.0039 c -0.24102,-0.04997 -0.483554,-0.09188 -0.72291,-0.149873 -0.74543,-0.182044 -1.157192,-0.680368 -1.313856,-1.417321 -0.141833,-0.675807 0.08741,-1.219982 0.601494,-1.650543 0.318227,-0.26716 0.657998,-0.507196 0.981023,-0.768014 0.136795,-0.1107 0.283558,-0.213673 0.194674,-0.44833 -0.08254,-0.2173 -0.129772,-0.422666 -0.4272,-0.421675 -0.445928,0.0023 -0.893243,-0.01505 -1.340074,-0.03048 -1.088037,-0.03684 -1.853273,-0.81645 -1.842067,-1.909802 0.0033,-0.314128 0.03848,-0.655169 0.404812,-0.807686 0.0309,-0.01269 0.06993,-0.07029 0.06348,-0.09456 -0.0527,-0.18437 0.09263,-0.265458 0.187982,-0.367938 0.213066,-0.231658 0.432605,-0.456748 0.643776,-0.690326 0.122007,-0.135161 0.228366,-0.262894 0.100629,-0.475806 -0.123129,-0.205849 -0.220004,-0.366773 -0.510276,-0.31922 -0.485344,0.07818 -0.97404,0.140143 -1.465201,0.168973 -0.844632,0.04953 -1.434026,-0.348762 -1.779471,-1.114921 -0.185523,-0.409799 -0.213307,-0.84021 0.0018,-1.240298 0.246354,-0.458561 0.540365,-0.891181 0.808062,-1.338439 0.202802,-0.336936 0.185999,-0.328615 -0.0426,-0.641141 -0.118019,-0.160471 -0.243784,-0.171134 -0.406679,-0.126198 -0.528799,0.144041 -1.05159,0.322621 -1.589161,0.420529 -1.080301,0.198562 -2.090811,-0.68991 -2.083036,-1.796199 4.14e-4,-0.08701 0.01754,-0.177769 0.0497,-0.258975 0.201506,-0.507588 0.406488,-1.014245 0.617795,-1.517512 0.09372,-0.223544 0.07485,-0.392342 -0.128249,-0.555173 -0.147482,-0.117689 -0.267186,-0.181279 -0.448308,-0.08895 -0.189517,0.09595 -0.386913,0.173931 -0.580619,0.260607 -0.296446,0.132615 -0.589177,0.274326 -0.888804,0.400169 -1.007658,0.426799 -2.3444,-0.46218 -2.380519,-1.544709 -0.0075,-0.221618 0.02809,-0.448653 0.07632,-0.666352 0.08498,-0.384284 0.201105,-0.760416 0.289202,-1.144816 0.02281,-0.09919 0.02147,-0.237479 -0.03034,-0.315462 -0.173972,-0.259164 -0.443881,-0.297781 -0.717707,-0.126849 -0.114068,0.0711 -0.220815,0.153623 -0.332559,0.228257 -0.317978,0.210671 -0.627688,0.440457 -0.959729,0.626819 -1.090243,0.611393 -2.646974,-0.291406 -2.581209,-1.548418 0.02445,-0.493868 0.06471,-0.984572 0.108819,-1.477422 0.01601,-0.169359 -0.02425,-0.281771 -0.194488,-0.341512 -0.170226,-0.05975 -0.325641,-0.223998 -0.516131,-0.03123 -0.173934,0.175587 -0.355059,0.343486 -0.53831,0.508737 -0.258995,0.232066 -0.504671,0.481621 -0.78735,0.680508 -0.877859,0.622568 -2.438579,0.09566 -2.649336,-1.065873 -0.05213,-0.286636 -0.07311,-0.577887 -0.09924,-0.868303 -0.02533,-0.257395 -0.03669,-0.517892 -0.0566,-0.775688 -0.0108,-0.154288 -0.09659,-0.235062 -0.242393,-0.283628 -0.08443,-0.02762 -0.150612,-0.04704 -0.207594,-0.05701 z m -4.513089,9.37673 c 0.03571,0.0074 0.07142,0.01472 0.107098,0.0222 C 67.53129,29.563044 75.722116,42.03834 73.079536,54.784818 70.436955,67.531292 57.961661,75.722117 45.215184,73.079539 32.468708,70.436955 24.277883,57.961661 26.920461,45.215184 29.554261,32.510387 41.960863,24.323309 54.677718,26.898257 Z"
     sodipodi:nodetypes="cccccccccccccccccccccccccccccccccccccccccccccccccccccccccccccccccccccccccccccccccccccccccccccccccccccccccccccccccccccccccccccccccccscccsccccccccccsccccccccccccccccccccccccccccccccccccccccccccccccccccccccccccccccccccccccccccccccccccccccccccccccccccccccccscccccccccccccccccccccccccccccccccccccsccccccccccccccccccccccccccccccccccccccccccccccccccccccccccccccccccccccccccccccccccccccccccccccccccccccccccscccccccccccccccccccccccccccccccsccccccccccccccccccccccccccccccccccccccccccccccccccccccccccscccccccccccccccccccccccccccccscccccccccccsscc" /></svg>
