<?xml version="1.0" encoding="UTF-8" standalone="no"?>
<svg
   xmlns:dc="http://purl.org/dc/elements/1.1/"
   xmlns:cc="http://creativecommons.org/ns#"
   xmlns:rdf="http://www.w3.org/1999/02/22-rdf-syntax-ns#"
   xmlns:svg="http://www.w3.org/2000/svg"
   xmlns="http://www.w3.org/2000/svg"
   xmlns:sodipodi="http://sodipodi.sourceforge.net/DTD/sodipodi-0.dtd"
   xmlns:inkscape="http://www.inkscape.org/namespaces/inkscape"
   version="1.1"
   id="Sprocket"
   x="0px"
   y="0px"
   width="100px"
   height="100px"
   viewBox="0 0 100 100"
   enable-background="new 0 0 100 100"
   xml:space="preserve"
   inkscape:version="0.91 r13725"
   sodipodi:docname="workflow.svg"
   inkscape:export-filename="C:\Users\wilkie\occam\benchmark_large.png"
   inkscape:export-xdpi="86.400002"
   inkscape:export-ydpi="86.400002"><metadata
     id="metadata11"><rdf:RDF><cc:Work
         rdf:about=""><dc:format>image/svg+xml</dc:format><dc:type
           rdf:resource="http://purl.org/dc/dcmitype/StillImage" /><dc:title /></cc:Work></rdf:RDF></metadata><defs
     id="defs9" /><sodipodi:namedview
     pagecolor="#ffffff"
     bordercolor="#666666"
     borderopacity="1"
     objecttolerance="10"
     gridtolerance="10"
     guidetolerance="10"
     inkscape:pageopacity="0"
     inkscape:pageshadow="2"
     inkscape:window-width="1920"
     inkscape:window-height="1176"
     id="namedview7"
     showgrid="false"
     inkscape:zoom="1"
     inkscape:cx="58.443882"
     inkscape:cy="31.862044"
     inkscape:window-x="0"
     inkscape:window-y="24"
     inkscape:window-maximized="1"
     inkscape:current-layer="Sprocket" /><path
     style="fill:#2da0b7;fill-opacity:1;stroke:none"
     d="m 168.98139,37.613357 c 1.03936,0 1.37304,0.837583 1.37304,1.876953 0.0107,2.481908 0.12717,4.439982 0.11328,6.800781 0,3.53596 2.73552,6.271485 6.27149,6.271485 15.32641,-0.0118 31.15337,0 46.82226,0 l 0.1875,0 c 1.03934,0 1.87696,0.83563 1.87696,1.875 l -0.002,0 c 0,1.03934 -0.83567,1.613281 -1.875,1.613281 -15.40206,0.228474 -31.9962,0.07098 -47.00977,0.07617 -5.44908,0 -9.83594,-4.386858 -9.83594,-9.835938 -0.0183,-2.255035 -0.0762,-4.690609 -0.0782,-6.800781 0,-1.03937 0.8376,-1.876953 1.87696,-1.876953 z"
     id="rect4153"
     inkscape:connector-curvature="0"
     sodipodi:nodetypes="scccssccccccss" /><path
     style="fill:#2da0b7;fill-opacity:1;stroke:none"
     d="m 247.10639,42.457107 c 2.6315,0 4.75,2.1185 4.75,4.75 l 0,11.5 c 0,2.6315 -2.1185,4.75 -4.75,4.75 l -11.5,0 c -2.6315,0 -4.75,-2.1185 -4.75,-4.75 l 0,-11.5 c 0,-2.6315 2.1185,-4.75 4.75,-4.75 l 11.5,0 z m -1.7793,3.25 -7.94141,0 c -1.81698,0 -3.27929,1.462309 -3.27929,3.279297 l 0,7.941406 c 0,1.816988 1.46231,3.279297 3.27929,3.279297 l 7.94141,0 c 1.81699,0 3.2793,-1.462309 3.2793,-3.279297 l 0,-7.941406 c 0,-1.816988 -1.46231,-3.279297 -3.2793,-3.279297 z"
     id="rect4221"
     inkscape:connector-curvature="0" /><rect
     ry="4.75"
     y="39.5"
     x="-22.017765"
     height="21"
     width="21"
     id="rect4238"
     style="fill:#2da0b7;fill-opacity:1;stroke:none"
     transform="scale(-1,1)" /><path
     id="path4254"
     d="m 247.10639,71.457107 c 2.6315,0 4.75,2.1185 4.75,4.75 l 0,11.5 c 0,2.6315 -2.1185,4.75 -4.75,4.75 l -11.5,0 c -2.6315,0 -4.75,-2.1185 -4.75,-4.75 l 0,-11.5 c 0,-2.6315 2.1185,-4.75 4.75,-4.75 l 11.5,0 z m -1.7793,3.25 -7.94141,0 c -1.81698,0 -3.27929,1.462309 -3.27929,3.279297 l 0,7.941406 c 0,1.816988 1.46231,3.279297 3.27929,3.279297 l 7.94141,0 c 1.81699,0 3.2793,-1.462309 3.2793,-3.279297 l 0,-7.941406 c 0,-1.816988 -1.46231,-3.279297 -3.2793,-3.279297 z"
     style="fill:#2da0b7;fill-opacity:1;stroke:none"
     inkscape:connector-curvature="0" /><path
     style="fill:#2da0b7;fill-opacity:1;stroke:none"
     d="m 166.60639,54.681716 c 0.88583,1.445711 2.1278,2.6461 3.61523,3.46875 0.001,5.383058 -0.008,10.59271 -0.004,16.140625 0,3.53596 2.73552,6.271485 6.27148,6.271485 15.32641,-0.0118 31.15338,0 46.82227,0 l 0.1875,0 c 1.03934,0 1.87695,0.83563 1.87695,1.875 l -0.002,0 c 0,1.03934 -0.83567,1.613281 -1.875,1.613281 -15.40205,0.228474 -31.99619,0.07098 -47.00976,0.07617 -5.44908,0 -9.83594,-4.386858 -9.83594,-9.835938 -0.0837,-6.345558 -0.0672,-13.108209 -0.0469,-19.609375 z"
     id="path4258"
     inkscape:connector-curvature="0"
     sodipodi:nodetypes="ccccsscccccc" /><path
     style="fill:#2da0b7;fill-opacity:1;stroke:none"
     d="m 93.734392,7.9528568 c 2.6315,0 4.75,2.1185002 4.75,4.7500002 l 0,11.5 c 0,2.6315 -2.1185,4.75 -4.75,4.75 l -11.5,0 c -2.6315,0 -4.75,-2.1185 -4.75,-4.75 l 0,-11.5 c 0,-2.6315 2.1185,-4.7500002 4.75,-4.7500002 l 11.5,0 z m -1.7793,3.2500002 -7.94141,0 c -1.81698,0 -3.27929,1.462309 -3.27929,3.279297 l 0,7.941406 c 0,1.816988 1.46231,3.279297 3.27929,3.279297 l 7.94141,0 c 1.81699,0 3.2793,-1.462309 3.2793,-3.279297 l 0,-7.941406 c 0,-1.816988 -1.46231,-3.279297 -3.2793,-3.279297 z"
     id="rect4221-6"
     inkscape:connector-curvature="0" /><path
     id="path4254-5"
     d="m 94.278844,39.5 c 2.6315,0 4.75,2.1185 4.75,4.75 l 0,11.5 c 0,2.6315 -2.1185,4.75 -4.75,4.75 l -11.5,0 c -2.6315,0 -4.75,-2.1185 -4.75,-4.75 l 0,-11.5 c 0,-2.6315 2.1185,-4.75 4.75,-4.75 l 11.5,0 z m -1.7793,3.25 -7.94141,0 c -1.81698,0 -3.27929,1.462309 -3.27929,3.279297 l 0,7.941406 c 0,1.816988 1.46231,3.279297 3.27929,3.279297 l 7.94141,0 c 1.81699,0 3.2793,-1.462309 3.2793,-3.279297 l 0,-7.941406 c 0,-1.816988 -1.46231,-3.279297 -3.2793,-3.279297 z"
     style="fill:#2da0b7;fill-opacity:1;stroke:none"
     inkscape:connector-curvature="0" /><path
     inkscape:connector-curvature="0"
     style="fill:#2da0b7;fill-opacity:1;stroke:none"
     d="m 94.00662,71.047143 c 2.6315,0 4.75,2.1185 4.75,4.75 l 0,11.5 c 0,2.6315 -2.1185,4.75 -4.75,4.75 l -11.5,0 c -2.6315,0 -4.75,-2.1185 -4.75,-4.75 l 0,-11.5 c 0,-2.6315 2.1185,-4.75 4.75,-4.75 l 11.5,0 z m -1.7793,3.25 -7.94141,0 c -1.81698,0 -3.27929,1.462309 -3.27929,3.279297 l 0,7.941406 c 0,1.816988 1.46231,3.279297 3.27929,3.279297 l 7.94141,0 c 1.81699,0 3.2793,-1.462309 3.2793,-3.279297 l 0,-7.941406 c 0,-1.816988 -1.46231,-3.279297 -3.2793,-3.279297 z"
     id="path4308" /><path
     style="color:#000000;font-style:normal;font-variant:normal;font-weight:normal;font-stretch:normal;font-size:medium;line-height:normal;font-family:sans-serif;text-indent:0;text-align:start;text-decoration:none;text-decoration-line:none;text-decoration-style:solid;text-decoration-color:#000000;letter-spacing:normal;word-spacing:normal;text-transform:none;direction:ltr;block-progression:tb;writing-mode:lr-tb;baseline-shift:baseline;text-anchor:start;white-space:normal;clip-rule:nonzero;display:inline;overflow:visible;visibility:visible;opacity:1;isolation:auto;mix-blend-mode:normal;color-interpolation:sRGB;color-interpolation-filters:linearRGB;solid-color:#000000;solid-opacity:1;fill:#2da0b7;fill-opacity:1;fill-rule:nonzero;stroke:none;stroke-width:4.72884083;stroke-linecap:round;stroke-linejoin:miter;stroke-miterlimit:4;stroke-dasharray:none;stroke-dashoffset:0;stroke-opacity:1;color-rendering:auto;image-rendering:auto;shape-rendering:auto;text-rendering:auto;enable-background:accumulate"
     d="M 52.789062 15.972656 C 49.010641 15.972656 45.599609 18.75378 45.599609 22.539062 L 45.599609 45.011719 L 50.328125 45.011719 L 50.328125 22.539062 C 50.328125 21.669207 51.220043 20.701172 52.789062 20.701172 L 68.142578 20.701172 A 2.3646569 2.3646569 0 1 0 68.142578 15.972656 L 52.789062 15.972656 z M 45.599609 54.988281 L 45.599609 77.460938 C 45.599609 81.246221 49.010642 84.027344 52.789062 84.027344 L 68.142578 84.027344 A 2.3646569 2.3646569 0 1 0 68.142578 79.298828 L 52.789062 79.298828 C 51.220045 79.298828 50.328125 78.330794 50.328125 77.460938 L 50.328125 54.988281 L 45.599609 54.988281 z "
     id="rect4312" /><rect
     style="fill:#2da0b7;fill-opacity:1;stroke:none;stroke-width:4;stroke-linecap:round;stroke-linejoin:miter;stroke-miterlimit:4;stroke-dasharray:none;stroke-opacity:1"
     id="rect4317"
     width="43.102268"
     height="5.012826"
     x="27.845318"
     y="47.493587"
     ry="2.506413" /></svg>