<?xml version="1.0" encoding="UTF-8" standalone="no"?>
<svg
   xmlns:dc="http://purl.org/dc/elements/1.1/"
   xmlns:cc="http://creativecommons.org/ns#"
   xmlns:rdf="http://www.w3.org/1999/02/22-rdf-syntax-ns#"
   xmlns:svg="http://www.w3.org/2000/svg"
   xmlns="http://www.w3.org/2000/svg"
   xmlns:sodipodi="http://sodipodi.sourceforge.net/DTD/sodipodi-0.dtd"
   xmlns:inkscape="http://www.inkscape.org/namespaces/inkscape"
   width="22"
   height="22"
   viewBox="0 0 22 22"
   version="1.1"
   id="svg2"
   inkscape:version="0.91 r13725"
   sodipodi:docname="application.svg"
   inkscape:export-filename="Z:\projects\occam\Large-Icons\group_large.png"
   inkscape:export-xdpi="392.72726"
   inkscape:export-ydpi="392.72726">
  <metadata
     id="metadata14">
    <rdf:RDF>
      <cc:Work
         rdf:about="">
        <dc:format>image/svg+xml</dc:format>
        <dc:type
           rdf:resource="http://purl.org/dc/dcmitype/StillImage" />
        <dc:title>album_collection</dc:title>
      </cc:Work>
    </rdf:RDF>
  </metadata>
  <sodipodi:namedview
     pagecolor="#ffffff"
     bordercolor="#666666"
     borderopacity="1"
     objecttolerance="10"
     gridtolerance="10"
     guidetolerance="10"
     inkscape:pageopacity="0"
     inkscape:pageshadow="2"
     inkscape:window-width="1920"
     inkscape:window-height="1176"
     id="namedview12"
     showgrid="false"
     inkscape:zoom="2.9517046"
     inkscape:cx="-29.126762"
     inkscape:cy="32.443857"
     inkscape:window-x="1920"
     inkscape:window-y="24"
     inkscape:window-maximized="1"
     inkscape:current-layer="g6299" />
  <title
     id="title4">album_collection</title>
  <description
     id="description6">Created with Sketch (http://www.bohemiancoding.com/sketch)</description>
  <defs
     id="defs8" />
  <g
     id="g6299"
     transform="translate(179.67237,-70.223625)">
    <path
       style="fill:#2da0b7;fill-opacity:1;stroke:none"
       d="m -179.15714,72.355759 c -0.23677,0 -0.42784,0.191047 -0.42784,0.427821 l 0,16.88009 c 0,0.236768 0.19105,0.427821 0.42784,0.427821 l 20.96954,0 c 0.23677,0 0.42784,-0.191047 0.42784,-0.427821 l 0,-16.88009 c 0,-0.236768 -0.19105,-0.427821 -0.42784,-0.427821 l -20.96954,0 z m 17.60045,0.421529 0.33659,0 c 0.16568,0 0.29886,0.133119 0.29886,0.298846 l 0,0.336597 c 0,0.165739 -0.13318,0.298846 -0.29886,0.298846 l -0.33659,0 c -0.16568,0 -0.29884,-0.133119 -0.29884,-0.298846 l 0,-0.336597 c 0,-0.165739 0.13318,-0.298846 0.29884,-0.298846 z m 1.23,0 0.33659,0 c 0.16568,0 0.29884,0.133119 0.29884,0.298846 l 0,0.336597 c 0,0.165739 -0.13318,0.298846 -0.29884,0.298846 l -0.33659,0 c -0.16568,0 -0.29886,-0.133119 -0.29886,-0.298846 l 0,-0.336597 c 0,-0.165739 0.13318,-0.298846 0.29886,-0.298846 z m 1.22684,0 0.3366,0 c 0.16568,0 0.29883,0.133119 0.29883,0.298846 l 0,0.336597 c 0,0.165739 -0.13317,0.298846 -0.29883,0.298846 l -0.3366,0 c -0.16568,0 -0.29885,-0.133119 -0.29885,-0.298846 l 0,-0.336597 c 0,-0.165739 0.13317,-0.298846 0.29885,-0.298846 z m -19.73014,1.390422 20.31524,0 0,15.275758 -20.31524,0 0,-15.275758 z"
       id="rect7030"
       inkscape:connector-curvature="0" />
    <path
       style="fill:#2da0b7;fill-opacity:1;stroke:none"
       d="M 6.3710938 10.951172 A 2.6875 2.6875 0 0 0 3.6835938 13.638672 A 2.6875 2.6875 0 0 0 6.3710938 16.326172 A 2.6875 2.6875 0 0 0 9.0585938 13.638672 A 2.6875 2.6875 0 0 0 8.9375 12.849609 L 6.3925781 12.849609 L 7.3769531 11.146484 A 2.6875 2.6875 0 0 0 6.3710938 10.951172 z "
       transform="translate(-179.67237,70.223625)"
       id="path4173" />
    <path
       style="fill:#2da0b7;fill-opacity:1;stroke:none"
       d="M 14.529297 10.982422 L 15.607422 12.849609 L 12.972656 12.849609 L 12.972656 16.326172 L 18.316406 16.326172 L 18.316406 10.982422 L 14.529297 10.982422 z "
       transform="translate(-179.67237,70.223625)"
       id="rect4171" />
    <path
       sodipodi:type="star"
       style="fill:#2da0b7;fill-opacity:1;stroke:none"
       id="path4175"
       sodipodi:sides="3"
       sodipodi:cx="-168.67237"
       sodipodi:cy="80.414314"
       sodipodi:r1="3.4966502"
       sodipodi:r2="1.7483251"
       sodipodi:arg1="0.52359878"
       sodipodi:arg2="1.5707963"
       inkscape:flatsided="false"
       inkscape:rounded="0"
       inkscape:randomized="0"
       d="m -165.64418,82.162639 -3.02818,0 -3.02819,0 1.51409,-2.622487 1.5141,-2.622488 1.51409,2.622488 z"
       inkscape:transform-center-y="-0.87416255" />
  </g>
</svg>
