<?xml version="1.0" encoding="UTF-8" standalone="no"?>
<svg
   xmlns:dc="http://purl.org/dc/elements/1.1/"
   xmlns:cc="http://creativecommons.org/ns#"
   xmlns:rdf="http://www.w3.org/1999/02/22-rdf-syntax-ns#"
   xmlns:svg="http://www.w3.org/2000/svg"
   xmlns="http://www.w3.org/2000/svg"
   xmlns:sodipodi="http://sodipodi.sourceforge.net/DTD/sodipodi-0.dtd"
   xmlns:inkscape="http://www.inkscape.org/namespaces/inkscape"
   width="22"
   height="22"
   viewBox="0 0 22 22"
   version="1.1"
   id="svg2"
   inkscape:version="0.91 r13725"
   sodipodi:docname="audio.svg"
   inkscape:export-filename="Z:\projects\occam\Large-Icons\group_large.png"
   inkscape:export-xdpi="392.72726"
   inkscape:export-ydpi="392.72726">
  <metadata
     id="metadata14">
    <rdf:RDF>
      <cc:Work
         rdf:about="">
        <dc:format>image/svg+xml</dc:format>
        <dc:type
           rdf:resource="http://purl.org/dc/dcmitype/StillImage" />
        <dc:title>album_collection</dc:title>
      </cc:Work>
    </rdf:RDF>
  </metadata>
  <sodipodi:namedview
     pagecolor="#ffffff"
     bordercolor="#666666"
     borderopacity="1"
     objecttolerance="10"
     gridtolerance="10"
     guidetolerance="10"
     inkscape:pageopacity="0"
     inkscape:pageshadow="2"
     inkscape:window-width="1920"
     inkscape:window-height="1057"
     id="namedview12"
     showgrid="false"
     inkscape:zoom="22.627417"
     inkscape:cx="5.5367702"
     inkscape:cy="7.427551"
     inkscape:window-x="1912"
     inkscape:window-y="-8"
     inkscape:window-maximized="1"
     inkscape:current-layer="g6708" />
  <title
     id="title4">album_collection</title>
  <description
     id="description6">Created with Sketch (http://www.bohemiancoding.com/sketch)</description>
  <defs
     id="defs8" />
  <g
     id="g6299"
     transform="translate(179.67237,-70.223625)">
    <g
       id="g6708"
       transform="translate(-216.90167,11.447502)"
       style="fill:#2da0b7;fill-opacity:1">
      <path
         id="path6666"
         d="m 37.861867,70.237409 c -0.184515,0 -0.345965,-0.161451 -0.345965,-0.345965 l 0,-0.230645 c 0,-0.184514 0.16145,-0.345965 0.345965,-0.345965 0.184515,0 0.345966,0.161451 0.345966,0.345965 l 0,0.230645 c 0,0.184514 -0.161451,0.345965 -0.345966,0.345965 z"
         inkscape:connector-curvature="0"
         style="fill:#2da0b7;fill-opacity:1" />
      <path
         id="path6668"
         d="m 39.245728,70.122088 c -0.09226,0 -0.184514,-0.04614 -0.253707,-0.09226 -0.0692,-0.0692 -0.09226,-0.16145 -0.09226,-0.253707 0,-0.09226 0.04614,-0.184515 0.09226,-0.253708 0.138386,-0.138387 0.36903,-0.138387 0.484351,0 0.0692,0.0692 0.09226,0.161451 0.09226,0.253708 0,0.09226 -0.04613,0.184515 -0.09226,0.253707 -0.04614,0.04614 -0.138385,0.09226 -0.230644,0.09226 z"
         inkscape:connector-curvature="0"
         style="fill:#2da0b7;fill-opacity:1" />
      <path
         id="path6670"
         d="m 40.629592,73.581743 c -0.184515,0 -0.345967,-0.161451 -0.345967,-0.345966 l 0,-6.91931 c 0,-0.184515 0.161452,-0.345966 0.345967,-0.345966 0.184514,0 0.345965,0.161451 0.345965,0.345966 l 0,6.91931 c 0,0.184515 -0.161451,0.345966 -0.345965,0.345966 z"
         inkscape:connector-curvature="0"
         style="fill:#2da0b7;fill-opacity:1" />
      <path
         id="path6672"
         d="m 43.397315,75.888179 c -0.184515,0 -0.345966,-0.16145 -0.345966,-0.345965 l 0,-11.532184 c 0,-0.184515 0.161451,-0.345965 0.345966,-0.345965 0.184515,0 0.345965,0.16145 0.345965,0.345965 l 0,11.532184 c 0,0.184515 -0.16145,0.345965 -0.345965,0.345965 z"
         inkscape:connector-curvature="0"
         style="fill:#2da0b7;fill-opacity:1" />
      <path
         id="path6674"
         d="m 42.013453,77.041396 c -0.184515,0 -0.345965,-0.161449 -0.345965,-0.345963 l 0,-13.838622 c 0,-0.184515 0.16145,-0.345964 0.345965,-0.345964 0.184516,0 0.345965,0.161449 0.345965,0.345964 l 0,13.838622 c 0,0.184514 -0.161449,0.345963 -0.345965,0.345963 z"
         inkscape:connector-curvature="0"
         style="fill:#2da0b7;fill-opacity:1" />
      <path
         id="path6676"
         d="m 44.781177,74.043029 c -0.184515,0 -0.345965,-0.16145 -0.345965,-0.345964 l 0,-7.841886 c 0,-0.184514 0.16145,-0.345965 0.345965,-0.345965 0.184516,0 0.345966,0.161451 0.345966,0.345965 l 0,7.841886 c 0,0.184514 -0.16145,0.345964 -0.345966,0.345964 z"
         inkscape:connector-curvature="0"
         style="fill:#2da0b7;fill-opacity:1" />
      <path
         id="path6678"
         d="m 46.165039,72.313202 c -0.184515,0 -0.345965,-0.16145 -0.345965,-0.345965 l 0,-4.38223 c 0,-0.184515 0.16145,-0.345965 0.345965,-0.345965 0.184515,0 0.345966,0.16145 0.345966,0.345965 l 0,4.38223 c 0,0.184515 -0.161451,0.345965 -0.345966,0.345965 z"
         inkscape:connector-curvature="0"
         style="fill:#2da0b7;fill-opacity:1" />
      <path
         id="path6680"
         d="m 47.5489,71.159984 c -0.184514,0 -0.345964,-0.161451 -0.345964,-0.345965 l 0,-2.075794 c 0,-0.184514 0.16145,-0.345966 0.345964,-0.345966 0.184516,0 0.345966,0.161452 0.345966,0.345966 l 0,2.075794 c 0,0.184514 -0.16145,0.345965 -0.345966,0.345965 z"
         inkscape:connector-curvature="0"
         style="fill:#2da0b7;fill-opacity:1" />
      <path
         id="path6682"
         d="m 48.932764,71.736593 c -0.184515,0 -0.345966,-0.16145 -0.345966,-0.345966 l 0,-3.22901 c 0,-0.184516 0.161451,-0.345966 0.345966,-0.345966 0.184514,0 0.345965,0.16145 0.345965,0.345966 l 0,3.22901 c 0,0.184516 -0.161451,0.345966 -0.345965,0.345966 z"
         inkscape:connector-curvature="0"
         style="fill:#2da0b7;fill-opacity:1" />
      <path
         id="path6684"
         d="m 50.316625,70.814019 c -0.184515,0 -0.345965,-0.161451 -0.345965,-0.345966 l 0,-1.383862 c 0,-0.184515 0.16145,-0.345966 0.345965,-0.345966 0.184516,0 0.345965,0.161451 0.345965,0.345966 l 0,1.383862 c 0,0.184515 -0.161449,0.345966 -0.345965,0.345966 z"
         inkscape:connector-curvature="0"
         style="fill:#2da0b7;fill-opacity:1" />
      <path
         id="path6686"
         d="m 51.700487,70.468053 c -0.184515,0 -0.345966,-0.161451 -0.345966,-0.345965 l 0,-0.691932 c 0,-0.184514 0.161451,-0.345965 0.345966,-0.345965 0.184515,0 0.345966,0.161451 0.345966,0.345965 l 0,0.691932 c 0,0.184514 -0.161451,0.345965 -0.345966,0.345965 z"
         inkscape:connector-curvature="0"
         style="fill:#2da0b7;fill-opacity:1" />
      <path
         id="path6688"
         d="m 53.08435,70.122088 c -0.09226,0 -0.184516,-0.04614 -0.253709,-0.09226 -0.02306,-0.02306 -0.04614,-0.0692 -0.0692,-0.115321 -0.02306,-0.04614 -0.02306,-0.09226 -0.02306,-0.138386 0,-0.02306 0,-0.04613 0,-0.0692 0,-0.02306 0,-0.04614 0.02306,-0.0692 0,-0.02306 0.02306,-0.04614 0.02306,-0.0692 0.02306,-0.02306 0.02306,-0.04614 0.04614,-0.04614 0.02306,-0.02306 0.02306,-0.02306 0.04613,-0.04613 0.02306,-0.02306 0.04614,-0.02306 0.0692,-0.02306 0.02306,0 0.04614,-0.02306 0.0692,-0.02306 0.04614,0 0.09226,0 0.138385,0 0.02306,0 0.04613,0 0.0692,0.02306 0.02306,0 0.04614,0.02306 0.0692,0.02306 0.02306,0.02306 0.04614,0.02306 0.04614,0.04613 0.02306,0.02306 0.02306,0.02306 0.04613,0.04614 0,0.02306 0.02306,0.04614 0.02306,0.0692 0,0.02306 0.02306,0.04612 0.02306,0.0692 0,0.02306 0,0.04613 0,0.0692 0,0.04614 0,0.09226 -0.02306,0.138386 -0.02306,0.04614 -0.04614,0.09226 -0.0692,0.115321 -0.02306,0.02306 -0.0692,0.04614 -0.11532,0.0692 -0.04614,0.02306 -0.09226,0.02306 -0.138387,0.02306 z"
         inkscape:connector-curvature="0"
         style="fill:#2da0b7;fill-opacity:1" />
      <path
         id="path6690"
         d="m 54.468211,70.237409 c -0.184514,0 -0.345965,-0.161451 -0.345965,-0.345965 l 0,-0.230645 c 0,-0.184514 0.161451,-0.345965 0.345965,-0.345965 0.184515,0 0.345966,0.161451 0.345966,0.345965 l 0,0.230645 c 0,0.184514 -0.161451,0.345965 -0.345966,0.345965 z"
         inkscape:connector-curvature="0"
         style="fill:#2da0b7;fill-opacity:1" />
      <path
         id="path6692"
         d="m 57.235936,70.237409 c -0.184515,0 -0.345966,-0.161451 -0.345966,-0.345965 l 0,-0.230645 c 0,-0.184514 0.161451,-0.345965 0.345966,-0.345965 0.184515,0 0.345965,0.161451 0.345965,0.345965 l 0,0.230645 c 0,0.184514 -0.16145,0.345965 -0.345965,0.345965 z"
         inkscape:connector-curvature="0"
         style="fill:#2da0b7;fill-opacity:1" />
      <path
         id="path6694"
         d="m 55.852073,70.122088 c -0.09226,0 -0.184515,-0.04614 -0.253708,-0.09226 -0.0692,-0.0692 -0.09226,-0.16145 -0.09226,-0.253707 0,-0.02306 0,-0.04613 0,-0.0692 0,-0.02306 0,-0.04614 0.02306,-0.0692 0,-0.02306 0.02306,-0.04614 0.02306,-0.0692 0.02306,-0.02306 0.02306,-0.04614 0.04613,-0.04614 0.09226,-0.09226 0.20758,-0.115321 0.322901,-0.09226 0.02306,0 0.04614,0 0.0692,0.02306 0.02306,0 0.04612,0.02306 0.0692,0.02306 0.02306,0.02306 0.04613,0.02306 0.04613,0.04613 0.0692,0.0692 0.09226,0.161451 0.09226,0.25371 0,0.09226 -0.04613,0.184514 -0.09226,0.253707 -0.02306,0.02306 -0.0692,0.04614 -0.115322,0.0692 -0.04613,0.02306 -0.09226,0.02306 -0.138386,0.02306 z"
         inkscape:connector-curvature="0"
         style="fill:#2da0b7;fill-opacity:1" />
      <path
         id="path6696"
         d="m 58.619798,70.122088 c -0.09226,0 -0.184516,-0.04614 -0.253709,-0.09226 -0.02306,-0.02306 -0.04612,-0.0692 -0.0692,-0.115321 -0.02306,-0.04614 -0.02306,-0.09226 -0.02306,-0.138386 0,-0.09226 0.04613,-0.184515 0.09226,-0.253708 0.138387,-0.138387 0.369029,-0.138387 0.484352,0 0.0692,0.0692 0.09226,0.161451 0.09226,0.253708 0,0.04614 0,0.09226 -0.02306,0.138386 -0.02306,0.04614 -0.04613,0.09226 -0.0692,0.115321 -0.04613,0.04614 -0.138387,0.09226 -0.230643,0.09226 z"
         inkscape:connector-curvature="0"
         style="fill:#2da0b7;fill-opacity:1" />
    </g>
  </g>
</svg>
