<?xml version="1.0" encoding="UTF-8" standalone="no"?>
<svg
   xmlns:dc="http://purl.org/dc/elements/1.1/"
   xmlns:cc="http://creativecommons.org/ns#"
   xmlns:rdf="http://www.w3.org/1999/02/22-rdf-syntax-ns#"
   xmlns:svg="http://www.w3.org/2000/svg"
   xmlns="http://www.w3.org/2000/svg"
   xmlns:sodipodi="http://sodipodi.sourceforge.net/DTD/sodipodi-0.dtd"
   xmlns:inkscape="http://www.inkscape.org/namespaces/inkscape"
   version="1.1"
   x="0px"
   y="0px"
   width="100px"
   height="100px"
   viewBox="0 0 100 100"
   enable-background="new 0 0 100 100"
   xml:space="preserve"
   id="svg2"
   inkscape:version="0.91 r13725"
   sodipodi:docname="cd_image_template.small.svg"
   inkscape:export-filename="C:\Users\wilkie\occam\configuration.png"
   inkscape:export-xdpi="18"
   inkscape:export-ydpi="18"><metadata
     id="metadata122"><rdf:RDF><cc:Work
         rdf:about=""><dc:format>image/svg+xml</dc:format><dc:type
           rdf:resource="http://purl.org/dc/dcmitype/StillImage" /><dc:title></dc:title></cc:Work></rdf:RDF></metadata><defs
     id="defs120" /><sodipodi:namedview
     pagecolor="#ffffff"
     bordercolor="#666666"
     borderopacity="1"
     objecttolerance="10"
     gridtolerance="10"
     guidetolerance="10"
     inkscape:pageopacity="0"
     inkscape:pageshadow="2"
     inkscape:window-width="1920"
     inkscape:window-height="1057"
     id="namedview118"
     showgrid="false"
     inkscape:zoom="6.675088"
     inkscape:cx="11.833622"
     inkscape:cy="60.906085"
     inkscape:window-x="-8"
     inkscape:window-y="1072"
     inkscape:window-maximized="1"
     inkscape:current-layer="svg2"
     inkscape:object-nodes="false" /><path
     id="path6287-8"
     d="m 49.999916,1.3987869 c -26.282897,0 -47.5874793,21.7582991 -47.5874793,48.6002081 0,26.843953 21.3045823,48.602218 47.5874793,48.602218 26.28087,0 47.587647,-21.758265 47.587647,-48.602218 0,-26.841909 -21.308635,-48.6001912 -47.587647,-48.6001912 z m 0.121601,60.4019041 c -6.45079,0 -11.680246,-5.330706 -11.680246,-11.90499 0,-6.574266 5.229456,-11.902954 11.680246,-11.902954 6.450622,0 11.680162,5.328688 11.680162,11.902954 0,6.574284 -5.22954,11.90499 -11.680162,11.90499 z"
     inkscape:connector-curvature="0"
     style="clip-rule:evenodd;fill:#2da0b7;fill-opacity:1;fill-rule:evenodd" /><g
     style="font-style:normal;font-variant:normal;font-weight:normal;font-stretch:normal;font-size:42.87388992px;line-height:1.25;font-family:inconsolata;-inkscape-font-specification:inconsolata;letter-spacing:0px;word-spacing:0px;fill:#2da0b7;fill-opacity:1;stroke:none;stroke-width:1.0718472"
     id="text1005"><text
       xml:space="preserve"
       style="font-style:normal;font-variant:normal;font-weight:normal;font-stretch:normal;font-size:42.73204803px;line-height:1.25;font-family:inconsolata;-inkscape-font-specification:inconsolata;letter-spacing:0px;word-spacing:0px;fill:#d35f5f;fill-opacity:1;stroke:none;stroke-width:0.80709034"
       x="8.479002"
       y="96.236763"
       id="text1005-6"><tspan
         sodipodi:role="line"
         id="tspan1003"
         x="8.479002"
         y="96.236763"
         style="font-style:normal;font-variant:normal;font-weight:bold;font-stretch:normal;font-family:'Open Sans';-inkscape-font-specification:'Open Sans Bold';fill:#d35f5f;fill-opacity:1;stroke-width:0.80709034">ISO</tspan></text>
</g></svg>