<?xml version="1.0" encoding="UTF-8" standalone="no"?>
<svg
   xmlns:dc="http://purl.org/dc/elements/1.1/"
   xmlns:cc="http://creativecommons.org/ns#"
   xmlns:rdf="http://www.w3.org/1999/02/22-rdf-syntax-ns#"
   xmlns:svg="http://www.w3.org/2000/svg"
   xmlns="http://www.w3.org/2000/svg"
   xmlns:sodipodi="http://sodipodi.sourceforge.net/DTD/sodipodi-0.dtd"
   xmlns:inkscape="http://www.inkscape.org/namespaces/inkscape"
   version="1.1"
   x="0px"
   y="0px"
   width="100px"
   height="100px"
   viewBox="0 0 100 100"
   enable-background="new 0 0 100 100"
   xml:space="preserve"
   id="svg2"
   inkscape:version="0.91 r13725"
   sodipodi:docname="text-plain.small.svg"
   inkscape:export-filename="C:\Users\wilkie\occam\configuration.png"
   inkscape:export-xdpi="18"
   inkscape:export-ydpi="18"><metadata
     id="metadata122"><rdf:RDF><cc:Work
         rdf:about=""><dc:format>image/svg+xml</dc:format><dc:type
           rdf:resource="http://purl.org/dc/dcmitype/StillImage" /><dc:title></dc:title></cc:Work></rdf:RDF></metadata><defs
     id="defs120" /><sodipodi:namedview
     pagecolor="#ffffff"
     bordercolor="#666666"
     borderopacity="1"
     objecttolerance="10"
     gridtolerance="10"
     guidetolerance="10"
     inkscape:pageopacity="0"
     inkscape:pageshadow="2"
     inkscape:window-width="1920"
     inkscape:window-height="1057"
     id="namedview118"
     showgrid="false"
     inkscape:zoom="8.9"
     inkscape:cx="50"
     inkscape:cy="50"
     inkscape:window-x="-8"
     inkscape:window-y="1072"
     inkscape:window-maximized="1"
     inkscape:current-layer="svg2"
     inkscape:object-nodes="false" /><path
     style="color:#000000;font-style:normal;font-variant:normal;font-weight:normal;font-stretch:normal;font-size:medium;line-height:normal;font-family:sans-serif;text-indent:0;text-align:start;text-decoration:none;text-decoration-line:none;text-decoration-style:solid;text-decoration-color:#000000;letter-spacing:normal;word-spacing:normal;text-transform:none;direction:ltr;writing-mode:lr-tb;baseline-shift:baseline;text-anchor:start;white-space:normal;clip-rule:nonzero;display:inline;overflow:visible;visibility:visible;opacity:1;isolation:auto;mix-blend-mode:normal;color-interpolation:sRGB;color-interpolation-filters:linearRGB;solid-color:#000000;solid-opacity:1;fill:#2da0b7;fill-opacity:1;fill-rule:nonzero;stroke:none;stroke-width:3.84708214;stroke-linecap:butt;stroke-linejoin:miter;stroke-miterlimit:4;stroke-dasharray:none;stroke-dashoffset:0;stroke-opacity:1;color-rendering:auto;image-rendering:auto;shape-rendering:auto;text-rendering:auto;enable-background:accumulate"
     d="M 32.353516,1.0390625 C 25.446321,7.8584722 18.363873,15.024901 12.439451,20.95117 l 0,2.054687 22.736328,0 0,-21.9667945 z m 4.757812,0 0,5.8476563 44.601563,0 c 0.0032,24.7111032 0,61.5166852 0,86.2265622 l -63.425782,0 c 0,-19.218353 -6.21e-4,-44.849981 0,-68.171875 l -5.847656,0 0,73.835938 0,0.183594 0.183594,0 74.753906,0 0.183594,0 0,-0.183594 0,-97.5546878 0,-0.1835937 -0.183594,0 z m -6.105469,7.2871094 0,10.4628901 -10.46289,0 z"
     id="rect962-5"
     inkscape:connector-curvature="0"
     sodipodi:nodetypes="ccccccccccccccccccccccccccc" /><g
     aria-label="T"
     style="font-style:normal;font-variant:normal;font-weight:normal;font-stretch:normal;font-size:84.83261871px;line-height:1.25;font-family:inconsolata;-inkscape-font-specification:inconsolata;letter-spacing:0px;word-spacing:0px;fill:#2da0b7;fill-opacity:1;stroke:none;stroke-width:2.12081552"
     id="text5776"><path
       d="M 59.962563,79.271539 C 54.676406,79.013678 53.838357,78.240094 53.773891,73.46966 l 0,-32.941783 3.481129,0 c 7.477978,0.12893 8.83175,1.224841 10.249986,8.251562 l 1.547168,0 -0.386792,-10.959106 -36.358445,0 -0.386791,10.959106 1.547168,0 c 1.482702,-7.026721 2.836474,-8.122632 10.249986,-8.251562 l 3.481128,0 0,32.232664 c -0.06446,5.544018 -0.644653,6.188671 -6.059741,6.510998 l 0,1.224841 18.823876,0 z"
       style="font-style:normal;font-variant:normal;font-weight:normal;font-stretch:normal;font-family:Times;-inkscape-font-specification:Times;fill:#2da0b7;fill-opacity:1;stroke-width:2.12081552"
       id="path5778"
       inkscape:connector-curvature="0" /></g></svg>