<?xml version="1.0" encoding="UTF-8" standalone="no"?>
<svg
   xmlns:dc="http://purl.org/dc/elements/1.1/"
   xmlns:cc="http://creativecommons.org/ns#"
   xmlns:rdf="http://www.w3.org/1999/02/22-rdf-syntax-ns#"
   xmlns:svg="http://www.w3.org/2000/svg"
   xmlns="http://www.w3.org/2000/svg"
   xmlns:sodipodi="http://sodipodi.sourceforge.net/DTD/sodipodi-0.dtd"
   xmlns:inkscape="http://www.inkscape.org/namespaces/inkscape"
   width="22"
   height="22"
   viewBox="0 0 22 22"
   version="1.1"
   id="svg2"
   inkscape:version="0.91 r13725"
   sodipodi:docname="workset.svg">
  <metadata
     id="metadata14">
    <rdf:RDF>
      <cc:Work
         rdf:about="">
        <dc:format>image/svg+xml</dc:format>
        <dc:type
           rdf:resource="http://purl.org/dc/dcmitype/StillImage" />
        <dc:title>album_collection</dc:title>
      </cc:Work>
    </rdf:RDF>
  </metadata>
  <sodipodi:namedview
     pagecolor="#ffffff"
     bordercolor="#666666"
     borderopacity="1"
     objecttolerance="10"
     gridtolerance="10"
     guidetolerance="10"
     inkscape:pageopacity="0"
     inkscape:pageshadow="2"
     inkscape:window-width="1920"
     inkscape:window-height="1057"
     id="namedview12"
     showgrid="false"
     inkscape:zoom="22.627417"
     inkscape:cx="21.672278"
     inkscape:cy="2.8437308"
     inkscape:window-x="-8"
     inkscape:window-y="1072"
     inkscape:window-maximized="1"
     inkscape:current-layer="svg2" />
  <title
     id="title4">album_collection</title>
  <description
     id="description6">Created with Sketch (http://www.bohemiancoding.com/sketch)</description>
  <defs
     id="defs8" />
  <path
     style="fill:#2da0b7;fill-opacity:1;fill-rule:evenodd;stroke:none"
     d="M 2 2 L 2 3 L 20 3 L 20 2 L 2 2 z M 1 4 L 1 5 L 21 5 L 21 4 L 1 4 z M 0.140625 6 C 0.0630358 6 0 6.0580509 0 6.1289062 L 0 21.871094 C 0 21.942223 0.06324768 22 0.140625 22 L 21.859375 22 C 21.936964 22 22 21.941949 22 21.871094 L 22 6.1289062 C 22 6.0577768 21.936753 6 21.859375 6 L 0.140625 6 z M 14.275391 7.0839844 C 14.680214 7.0813065 15.010972 7.4073801 15.013672 7.8125 C 15.01635 8.2174712 14.690276 8.5481014 14.285156 8.5507812 C 13.880184 8.5536081 13.549775 8.2272368 13.546875 7.8222656 C 13.544197 7.4171458 13.870271 7.0868044 14.275391 7.0839844 z M 14.277344 7.3125 C 13.997792 7.314434 13.771536 7.5428622 13.773438 7.8222656 C 13.77552 8.1018177 14.003502 8.3261486 14.283203 8.3242188 C 14.562607 8.3222846 14.787056 8.0940052 14.785156 7.8144531 C 14.783221 7.5350498 14.556897 7.31057 14.277344 7.3125 z M 12.103516 8.1445312 C 12.675712 8.140663 13.142584 8.6017803 13.146484 9.1738281 C 13.150353 9.7460243 12.691189 10.212897 12.119141 10.216797 C 11.546945 10.220665 11.079872 9.7596962 11.076172 9.1875 C 11.072303 8.6153028 11.531468 8.1484013 12.103516 8.1445312 z M 12.105469 8.4667969 C 11.710614 8.4696237 11.393584 8.7906925 11.396484 9.1855469 C 11.399312 9.5802518 11.722481 9.8992244 12.117188 9.8964844 C 12.511893 9.8938064 12.829072 9.5704864 12.826172 9.1757812 C 12.823494 8.7810751 12.500322 8.4641169 12.105469 8.4667969 z M 14.439453 9.6269531 C 14.651758 9.625465 14.824672 9.7973122 14.826172 10.009766 C 14.82766 10.221922 14.65747 10.394984 14.445312 10.396484 C 14.233008 10.397822 14.058141 10.225977 14.056641 10.013672 C 14.055154 9.8013677 14.227149 9.6284431 14.439453 9.6269531 z M 14.439453 9.7460938 C 14.292904 9.7469868 14.174781 9.8672803 14.175781 10.013672 C 14.176823 10.160221 14.296807 10.278235 14.443359 10.277344 C 14.5896 10.276302 14.708031 10.156302 14.707031 10.009766 C 14.70599 9.8632155 14.586005 9.7452004 14.439453 9.7460938 z M 9.8710938 11.414062 C 10.030873 11.414064 10.160156 11.543336 10.160156 11.703125 L 10.160156 14.664062 C 10.160156 14.667953 10.160305 14.670128 10.160156 14.673828 C 10.163876 14.731555 10.149767 14.79093 10.117188 14.84375 L 7.3300781 19.896484 L 14.669922 19.896484 L 11.882812 14.84375 C 11.850354 14.790795 11.836344 14.731548 11.839844 14.673828 C 11.839644 14.670138 11.839844 14.667962 11.839844 14.664062 L 11.839844 11.703125 C 11.839844 11.543346 11.969262 11.414062 12.128906 11.414062 C 12.288537 11.414064 12.417969 11.543336 12.417969 11.703125 L 12.417969 14.619141 L 15.40625 20.033203 C 15.40975 20.038573 15.410964 20.045181 15.414062 20.050781 C 15.419373 20.060291 15.423734 20.069598 15.427734 20.080078 C 15.431134 20.088558 15.4348 20.096769 15.4375 20.105469 C 15.4401 20.114689 15.441559 20.125266 15.443359 20.134766 C 15.445159 20.145036 15.446373 20.155856 15.447266 20.166016 C 15.447566 20.172866 15.449219 20.178747 15.449219 20.185547 L 15.449219 20.191406 C 15.449019 20.201386 15.446613 20.210903 15.445312 20.220703 C 15.444314 20.230073 15.443506 20.239147 15.441406 20.248047 C 15.439706 20.255927 15.436294 20.263584 15.433594 20.271484 C 15.430534 20.281614 15.428228 20.293234 15.423828 20.302734 C 15.420968 20.309734 15.415809 20.315466 15.412109 20.322266 C 15.407179 20.331636 15.402884 20.340909 15.396484 20.349609 C 15.391974 20.356139 15.385859 20.363041 15.380859 20.369141 C 15.373939 20.377571 15.367475 20.384978 15.359375 20.392578 C 15.354325 20.397608 15.34955 20.40155 15.34375 20.40625 C 15.33468 20.41362 15.324613 20.420934 15.314453 20.427734 C 15.313153 20.428534 15.312147 20.43075 15.310547 20.431641 C 15.305717 20.434841 15.301675 20.436553 15.296875 20.439453 C 15.286605 20.445113 15.274632 20.450878 15.263672 20.455078 C 15.255342 20.458278 15.246981 20.460291 15.238281 20.462891 C 15.228761 20.465691 15.220738 20.46695 15.210938 20.46875 C 15.200666 20.47055 15.190167 20.471913 15.179688 20.472656 C 15.172968 20.473256 15.167056 20.474609 15.160156 20.474609 L 6.859375 20.474609 L 6.8535156 20.474609 C 6.7974236 20.477429 6.7409331 20.463341 6.6894531 20.431641 C 6.5533331 20.348027 6.51014 20.16934 6.59375 20.033203 L 9.5820312 14.619141 L 9.5820312 11.703125 C 9.5820312 11.543346 9.7114496 11.414062 9.8710938 11.414062 z M 10.275391 15.417969 L 11.724609 15.417969 L 14.017578 19.572266 L 7.9824219 19.572266 L 10.275391 15.417969 z "
     id="album_collection" />
</svg>
