<?xml version="1.0" encoding="UTF-8" standalone="no"?>
<svg
   xmlns:dc="http://purl.org/dc/elements/1.1/"
   xmlns:cc="http://creativecommons.org/ns#"
   xmlns:rdf="http://www.w3.org/1999/02/22-rdf-syntax-ns#"
   xmlns:svg="http://www.w3.org/2000/svg"
   xmlns="http://www.w3.org/2000/svg"
   xmlns:sodipodi="http://sodipodi.sourceforge.net/DTD/sodipodi-0.dtd"
   xmlns:inkscape="http://www.inkscape.org/namespaces/inkscape"
   version="1.1"
   x="0px"
   y="0px"
   width="100px"
   height="100px"
   viewBox="0 0 100 100"
   enable-background="new 0 0 100 100"
   xml:space="preserve"
   id="svg2"
   inkscape:version="0.91 r13725"
   sodipodi:docname="application-zip.svg"
   inkscape:export-filename="C:\Users\wilkie\occam\configuration.png"
   inkscape:export-xdpi="18"
   inkscape:export-ydpi="18"><metadata
     id="metadata122"><rdf:RDF><cc:Work
         rdf:about=""><dc:format>image/svg+xml</dc:format><dc:type
           rdf:resource="http://purl.org/dc/dcmitype/StillImage" /><dc:title /></cc:Work></rdf:RDF></metadata><defs
     id="defs120" /><sodipodi:namedview
     pagecolor="#ffffff"
     bordercolor="#666666"
     borderopacity="1"
     objecttolerance="10"
     gridtolerance="10"
     guidetolerance="10"
     inkscape:pageopacity="0"
     inkscape:pageshadow="2"
     inkscape:window-width="1920"
     inkscape:window-height="1057"
     id="namedview118"
     showgrid="false"
     inkscape:zoom="3.337544"
     inkscape:cx="22.17216"
     inkscape:cy="64.600243"
     inkscape:window-x="-8"
     inkscape:window-y="1072"
     inkscape:window-maximized="1"
     inkscape:current-layer="text1005"
     inkscape:object-nodes="false" /><path
     style="color:#000000;font-style:normal;font-variant:normal;font-weight:normal;font-stretch:normal;font-size:medium;line-height:normal;font-family:sans-serif;font-variant-ligatures:normal;font-variant-position:normal;font-variant-caps:normal;font-variant-numeric:normal;font-variant-alternates:normal;font-feature-settings:normal;text-indent:0;text-align:start;text-decoration:none;text-decoration-line:none;text-decoration-style:solid;text-decoration-color:#000000;letter-spacing:normal;word-spacing:normal;text-transform:none;writing-mode:lr-tb;direction:ltr;text-orientation:mixed;dominant-baseline:auto;baseline-shift:baseline;text-anchor:start;white-space:normal;shape-padding:0;clip-rule:nonzero;display:inline;overflow:visible;visibility:visible;opacity:1;isolation:auto;mix-blend-mode:normal;color-interpolation:sRGB;color-interpolation-filters:linearRGB;solid-color:#000000;solid-opacity:1;vector-effect:none;fill:#2da0b7;fill-opacity:1;fill-rule:nonzero;stroke:none;stroke-width:3.8235395;stroke-linecap:butt;stroke-linejoin:miter;stroke-miterlimit:4;stroke-dasharray:none;stroke-dashoffset:0;stroke-opacity:1;color-rendering:auto;image-rendering:auto;shape-rendering:auto;text-rendering:auto;enable-background:accumulate"
     d="M 3.5175781,5.5253906 V 5.7070312 L 3.6992188,5.5253906 Z m 14.9238279,0 4.048828,3.8242188 H 94.353516 V 53.736328 c 0.05442,0.02527 0.107846,0.05264 0.160156,0.08203 l 2.753906,1.589844 c 0.390148,0.226156 0.70631,0.560637 0.910156,0.962891 V 5.5253906 Z M 3.5175781,17.474609 V 86.847656 H 13.783203 V 83.023438 H 7.3398438 V 30.392578 Z M 98.177734,58.478516 c -0.01849,0.03829 -0.03803,0.07606 -0.05859,0.113281 l -3.765625,6.523437 V 83.023438 H 61.871094 v 3.824218 h 36.30664 z"
     id="rect962"
     inkscape:connector-curvature="0"
     sodipodi:nodetypes="cccccccccccccccccccccccccccc" /><path
     style="fill:#2da0b7;fill-opacity:1;stroke:none;stroke-width:1.31233025px;stroke-linecap:butt;stroke-linejoin:miter;stroke-opacity:1"
     d="M 9.8900119,3.0909888 5.2531936,5.671995 10.370509,27.799934 24.80039,19.767787 Z m 4.6085661,12.7138672 4.334916,3.625271 -5.941716,3.307356 -0.300573,-5.868845 z"
     id="path964"
     inkscape:connector-curvature="0" /><path
     style="fill:#2da0b7;fill-opacity:1;stroke:none;stroke-width:0.77710754"
     d="M 23.105469 23.314453 L 15.300781 27.660156 L 17.03125 29.390625 L 23.105469 23.314453 z "
     id="rect969" /><rect
     transform="rotate(-45)"
     y="35.303417"
     x="-8.7400522"
     height="3.1779659"
     width="13.135592"
     id="rect971"
     style="fill:#2da0b7;fill-opacity:1;stroke:none;stroke-width:0.77710754" /><rect
     style="fill:#2da0b7;fill-opacity:1;stroke:none;stroke-width:0.77710754"
     id="rect973"
     width="13.135592"
     height="3.1779659"
     x="-8.7400522"
     y="40.960278"
     transform="rotate(-45)" /><rect
     transform="rotate(-60)"
     y="44.631676"
     x="-20.324116"
     height="3.1779659"
     width="13.135592"
     id="rect975"
     style="fill:#2da0b7;fill-opacity:1;stroke:none;stroke-width:0.77710754" /><rect
     style="fill:#2da0b7;fill-opacity:1;stroke:none;stroke-width:0.77710754"
     id="rect977"
     width="13.135592"
     height="3.1779659"
     x="-32.535686"
     y="45.124783"
     transform="rotate(-75)" /><rect
     transform="rotate(-90)"
     y="42.45998"
     x="-44.340508"
     height="3.1779659"
     width="13.135592"
     id="rect979"
     style="fill:#2da0b7;fill-opacity:1;stroke:none;stroke-width:0.77710754" /><rect
     style="fill:#2da0b7;fill-opacity:1;stroke:none;stroke-width:0.77710754"
     id="rect981"
     width="13.135592"
     height="3.1779659"
     x="-30.914459"
     y="56.384686"
     transform="rotate(-75)" /><rect
     transform="rotate(-60)"
     y="66.15786"
     x="-14.417633"
     height="3.1779659"
     width="13.135592"
     id="rect983"
     style="fill:#2da0b7;fill-opacity:1;stroke:none;stroke-width:0.77710754" /><rect
     style="fill:#2da0b7;fill-opacity:1;stroke:none;stroke-width:0.77710754"
     id="rect985"
     width="13.135592"
     height="3.1779659"
     x="3.8077452"
     y="71.326118"
     transform="rotate(-45)" /><rect
     transform="rotate(-30)"
     y="71.7099"
     x="23.046448"
     height="3.1779659"
     width="13.135592"
     id="rect987"
     style="fill:#2da0b7;fill-opacity:1;stroke:none;stroke-width:0.77710754" /><rect
     style="fill:#2da0b7;fill-opacity:1;stroke:none;stroke-width:0.77710754"
     id="rect989"
     width="13.135592"
     height="3.1779659"
     x="1.681391"
     y="-111.93996"
     transform="rotate(120)" /><rect
     transform="rotate(105)"
     y="-100.41635"
     x="29.243723"
     height="3.1779659"
     width="13.135592"
     id="rect991"
     style="fill:#2da0b7;fill-opacity:1;stroke:none;stroke-width:0.77710754" /><rect
     style="fill:#2da0b7;fill-opacity:1;stroke:none;stroke-width:0.77710754"
     id="rect993"
     width="13.135592"
     height="3.1779659"
     x="53.00264"
     y="-82.132278"
     transform="rotate(90)" /><rect
     transform="rotate(105)"
     y="-89.156448"
     x="30.864946"
     height="3.1779659"
     width="13.135592"
     id="rect995"
     style="fill:#2da0b7;fill-opacity:1;stroke:none;stroke-width:0.77710754" /><rect
     style="fill:#2da0b7;fill-opacity:1;stroke:none;stroke-width:0.77710754"
     id="rect997"
     width="13.135592"
     height="3.1779659"
     x="7.5878739"
     y="-90.41378"
     transform="rotate(120)" /><rect
     transform="rotate(135)"
     y="-85.605911"
     x="-15.460287"
     height="3.1779659"
     width="13.135592"
     id="rect999"
     style="fill:#2da0b7;fill-opacity:1;stroke:none;stroke-width:0.77710754" /><g
     style="font-style:normal;font-variant:normal;font-weight:normal;font-stretch:normal;font-size:32.28361511px;line-height:1.25;font-family:inconsolata;-inkscape-font-specification:inconsolata;letter-spacing:0px;word-spacing:0px;fill:#2da0b7;fill-opacity:1;stroke:none;stroke-width:0.80709034"
     id="text1005"><path
       d="m 29.861893,95.855942 -17.15067,0 0,-3.16846 11.050202,-15.842302 -10.750696,0 0,-4.035452 16.551658,0 0,3.152697 -11.034438,15.858065 11.333944,0 0,4.035452 z"
       style="font-style:normal;font-variant:normal;font-weight:bold;font-stretch:normal;font-family:'Open Sans';-inkscape-font-specification:'Open Sans Bold';fill:#2da0b7;fill-opacity:1;stroke-width:0.80709034"
       id="path4712" /><path
       d="m 33.566312,95.855942 0,-23.046214 4.88668,0 0,23.046214 -4.88668,0 z"
       style="font-style:normal;font-variant:normal;font-weight:bold;font-stretch:normal;font-family:'Open Sans';-inkscape-font-specification:'Open Sans Bold';fill:#2da0b7;fill-opacity:1;stroke-width:0.80709034"
       id="path4714" /><path
       d="m 49.172159,83.655005 1.607876,0 q 2.254178,0 3.373385,-0.882755 1.119208,-0.898518 1.119208,-2.600975 0,-1.718219 -0.945809,-2.537921 -0.930046,-0.819701 -2.932008,-0.819701 l -2.222652,0 0,6.841352 z m 11.034439,-3.657128 q 0,3.720182 -2.332995,5.690618 -2.317233,1.970435 -6.6049,1.970435 l -2.096544,0 0,8.197012 -4.88668,0 0,-23.046214 7.361547,0 q 4.193087,0 6.368448,1.812801 2.191124,1.797037 2.191124,5.375348 z"
       style="font-style:normal;font-variant:normal;font-weight:bold;font-stretch:normal;font-family:'Open Sans';-inkscape-font-specification:'Open Sans Bold';fill:#2da0b7;fill-opacity:1;stroke-width:0.80709034"
       id="path4716" /></g></svg>