<?xml version="1.0" encoding="UTF-8" standalone="no"?>
<svg
   xmlns:dc="http://purl.org/dc/elements/1.1/"
   xmlns:cc="http://creativecommons.org/ns#"
   xmlns:rdf="http://www.w3.org/1999/02/22-rdf-syntax-ns#"
   xmlns:svg="http://www.w3.org/2000/svg"
   xmlns="http://www.w3.org/2000/svg"
   xmlns:sodipodi="http://sodipodi.sourceforge.net/DTD/sodipodi-0.dtd"
   xmlns:inkscape="http://www.inkscape.org/namespaces/inkscape"
   version="1.1"
   width="32"
   height="32"
   data-icon="people"
   data-container-transform="translate(0 8)"
   viewBox="0 0 32 32"
   id="svg2"
   inkscape:version="0.91 r13725"
   sodipodi:docname="architecture.svg"
   inkscape:export-filename="architecture.png"
   inkscape:export-xdpi="56.25"
   inkscape:export-ydpi="56.25">
  <metadata
     id="metadata10">
    <rdf:RDF>
      <cc:Work
         rdf:about="">
        <dc:format>image/svg+xml</dc:format>
        <dc:type
           rdf:resource="http://purl.org/dc/dcmitype/StillImage" />
        <dc:title />
      </cc:Work>
    </rdf:RDF>
  </metadata>
  <defs
     id="defs8" />
  <sodipodi:namedview
     pagecolor="#ffffff"
     bordercolor="#666666"
     borderopacity="1"
     objecttolerance="10"
     gridtolerance="10"
     guidetolerance="10"
     inkscape:pageopacity="0"
     inkscape:pageshadow="2"
     inkscape:window-width="1920"
     inkscape:window-height="1057"
     id="namedview6"
     showgrid="false"
     inkscape:zoom="5.6568543"
     inkscape:cx="44.56422"
     inkscape:cy="17.956664"
     inkscape:window-x="-8"
     inkscape:window-y="1072"
     inkscape:window-maximized="1"
     inkscape:current-layer="svg2" />
  <path
     style="opacity:1;fill:#6aa3ae;fill-opacity:1"
     d="m 8.8159909,8.9273646 0,14.3850414 14.3850441,0 0,-14.3850414 -14.3850441,0 z m 4.0757641,4.0757604 6.233517,0 0,6.23352 -6.233517,0 0,-6.23352 z"
     id="rect4729"
     inkscape:connector-curvature="0" />
  <rect
     style="opacity:1;fill:#6aa3ae;fill-opacity:1"
     id="rect4743"
     width="3.596261"
     height="5.2042947"
     x="10.605618"
     y="-6.7096519"
     transform="matrix(0,1,-1,0,0,0)" />
  <rect
     y="-6.7096519"
     x="17.798141"
     height="5.2042947"
     width="3.596261"
     id="rect4745"
     style="opacity:1;fill:#6aa3ae;fill-opacity:1"
     transform="matrix(0,1,-1,0,0,0)" />
  <rect
     transform="matrix(0,1,-1,0,0,0)"
     y="-30.494642"
     x="10.605618"
     height="5.2042947"
     width="3.596261"
     id="rect4747"
     style="opacity:1;fill:#6aa3ae;fill-opacity:1" />
  <rect
     transform="matrix(0,1,-1,0,0,0)"
     style="opacity:1;fill:#6aa3ae;fill-opacity:1"
     id="rect4749"
     width="3.596261"
     height="5.2042947"
     x="17.798141"
     y="-30.494642" />
  <rect
     transform="scale(-1,-1)"
     y="-6.7096529"
     x="-21.394402"
     height="5.2042947"
     width="3.596261"
     id="rect4761"
     style="opacity:1;fill:#6aa3ae;fill-opacity:1" />
  <rect
     transform="scale(-1,-1)"
     style="opacity:1;fill:#6aa3ae;fill-opacity:1"
     id="rect4763"
     width="3.596261"
     height="5.2042947"
     x="-14.201878"
     y="-6.7096529" />
  <rect
     style="opacity:1;fill:#6aa3ae;fill-opacity:1"
     id="rect4765"
     width="3.596261"
     height="5.2042947"
     x="-21.394402"
     y="-30.494642"
     transform="scale(-1,-1)" />
  <rect
     y="-30.494642"
     x="-14.201878"
     height="5.2042947"
     width="3.596261"
     id="rect4767"
     style="opacity:1;fill:#6aa3ae;fill-opacity:1"
     transform="scale(-1,-1)" />
</svg>
