<?xml version="1.0" encoding="UTF-8" standalone="no"?>
<svg
   xmlns:dc="http://purl.org/dc/elements/1.1/"
   xmlns:cc="http://creativecommons.org/ns#"
   xmlns:rdf="http://www.w3.org/1999/02/22-rdf-syntax-ns#"
   xmlns:svg="http://www.w3.org/2000/svg"
   xmlns="http://www.w3.org/2000/svg"
   xmlns:sodipodi="http://sodipodi.sourceforge.net/DTD/sodipodi-0.dtd"
   xmlns:inkscape="http://www.inkscape.org/namespaces/inkscape"
   version="1.1"
   width="32"
   height="32"
   data-icon="people"
   data-container-transform="translate(0 8)"
   viewBox="0 0 32 32"
   id="svg2"
   inkscape:version="0.91 r13725"
   sodipodi:docname="backend.svg"
   inkscape:export-filename="inputs.png"
   inkscape:export-xdpi="56.25"
   inkscape:export-ydpi="56.25">
  <metadata
     id="metadata10">
    <rdf:RDF>
      <cc:Work
         rdf:about="">
        <dc:format>image/svg+xml</dc:format>
        <dc:type
           rdf:resource="http://purl.org/dc/dcmitype/StillImage" />
        <dc:title></dc:title>
      </cc:Work>
    </rdf:RDF>
  </metadata>
  <defs
     id="defs8" />
  <sodipodi:namedview
     pagecolor="#ffffff"
     bordercolor="#666666"
     borderopacity="1"
     objecttolerance="10"
     gridtolerance="10"
     guidetolerance="10"
     inkscape:pageopacity="0"
     inkscape:pageshadow="2"
     inkscape:window-width="1920"
     inkscape:window-height="1057"
     id="namedview6"
     showgrid="false"
     inkscape:zoom="5.6568543"
     inkscape:cx="25.771183"
     inkscape:cy="17.590714"
     inkscape:window-x="-8"
     inkscape:window-y="1072"
     inkscape:window-maximized="1"
     inkscape:current-layer="Your_Icon"
     showguides="false" />
  <g
     transform="matrix(0.32874094,0,0,0.32874094,-0.437047,-0.4370464)"
     id="g4"
     style="fill:#6aa3ae;fill-opacity:1">
    <g
       transform="matrix(3.0419089,0,0,3.0419089,-116.81789,-108.68221)"
       id="Your_Icon"
       style="fill:#2da0b7;fill-opacity:1">
      <path
         inkscape:connector-curvature="0"
         d="m 48.896153,40.434408 c -0.666533,0.254357 -0.510813,0.778182 -0.233371,1.749439 0.28122,0.967901 0.317317,1.895927 -0.381536,2.593101 -0.137252,0.122142 -0.270726,0.242185 -0.400003,0.369363 -0.0092,0.0084 -0.01385,0.0084 -0.02309,0.01469 -0.739986,0.666533 -1.665074,0.57713 -2.619123,0.244283 -0.954049,-0.335365 -1.46864,-0.520047 -1.759514,0.130537 -0.290452,0.646385 -0.09528,0.207347 -0.561599,1.254156 -0.0055,0.01049 -0.0084,0.01721 -0.01385,0.03023 -0.469259,1.04597 -0.274085,0.607771 -0.561181,1.252058 -0.291293,0.651843 0.18846,0.912915 1.074092,1.402322 0.877238,0.48437 1.553006,1.10977 1.560141,2.084805 -0.01175,0.183423 -0.01678,0.368105 -0.01721,0.552787 -0.0017,0.01469 -0.0088,0.02183 -0.0088,0.03735 -0.04994,0.993504 -0.768527,1.584905 -1.679764,2.023944 -0.910815,0.437779 -1.406939,0.671989 -1.151741,1.337264 0.251838,0.659818 0.08017,0.210705 0.490246,1.283958 0.0029,0.01133 0.0059,0.01889 0.01091,0.02981 0.40714,1.074092 0.236728,0.623721 0.488987,1.282279 0.254776,0.668632 0.77902,0.513751 1.750698,0.233371 0.967061,-0.279122 1.891729,-0.315638 2.590581,0.379437 0.120882,0.138091 0.241346,0.273665 0.371463,0.402942 0.0084,0.0097 0.0075,0.01679 0.01678,0.02602 0.661917,0.737048 0.575871,1.665074 0.241346,2.616185 -0.334107,0.955308 -0.517529,1.46906 0.130117,1.761193 0.647645,0.287516 0.208606,0.0915 1.255416,0.562859 0.0075,0.0033 0.01133,0.0059 0.01889,0.0097 0.0033,8.39e-4 0.0059,0.0017 0.01049,0.0033 1.04597,0.468841 0.607771,0.270307 1.254577,0.561182 0.650164,0.288774 0.910396,-0.189719 1.400642,-1.075352 0.483531,-0.878498 1.113548,-1.558462 2.09404,-1.56182 0.177967,0.01133 0.357611,0.01805 0.535577,0.01636 0.01931,0.0025 0.02602,0.01133 0.04659,0.01133 0.989726,0.05204 1.584066,0.770207 2.021426,1.679765 0.438619,0.910397 0.67199,1.40526 1.338103,1.152582 0.659819,-0.253518 0.212385,-0.08227 1.284798,-0.491086 0.0067,-0.0017 0.01049,-0.0033 0.01721,-0.0059 0.0051,-0.0017 0.0084,-0.0025 0.01175,-0.0051 1.071573,-0.408818 0.6233,-0.240506 1.284797,-0.490246 0.665274,-0.253518 0.512072,-0.778182 0.230852,-1.750279 -0.281639,-0.97042 -0.318156,-1.901383 0.389511,-2.598977 l 0,0 c 0.132215,-0.118784 0.264011,-0.235889 0.38909,-0.360129 0.0097,-0.01049 0.01721,-0.0084 0.02896,-0.01889 0.737467,-0.663176 1.664234,-0.575032 2.618703,-0.241346 0.95363,0.333267 1.46822,0.517949 1.758674,-0.131795 0.287936,-0.645547 0.09234,-0.205669 0.564538,-1.252898 0.0025,-0.0075 0.0042,-0.01301 0.0067,-0.01847 0.0025,-0.0046 0.0033,-0.0088 0.0051,-0.01091 0.468001,-1.048069 0.270307,-0.60903 0.560341,-1.255417 0.289615,-0.650164 -0.188039,-0.911236 -1.074092,-1.401063 -0.881855,-0.486048 -1.563499,-1.115645 -1.562659,-2.101174 0.01049,-0.175448 0.01637,-0.349217 0.01637,-0.525504 0.0025,-0.01931 0.01049,-0.02812 0.01133,-0.04911 0.05205,-0.991405 0.769367,-1.582806 1.681023,-2.020166 0.908298,-0.440719 1.404001,-0.673669 1.152163,-1.339363 -0.253099,-0.659817 -0.0831,-0.211544 -0.490246,-1.285217 -0.0025,-0.0067 -0.0042,-0.01049 -0.0075,-0.01805 -8.4e-4,-0.0038 -0.0025,-0.008 -0.0051,-0.01091 -0.410077,-1.072413 -0.238827,-0.621622 -0.489826,-1.285218 -0.254358,-0.664015 -0.778182,-0.509973 -1.751538,-0.230012 -0.969999,0.282479 -1.903062,0.316897 -2.596878,-0.389511 -0.0017,-8.4e-4 -0.0029,-8.4e-4 -0.0029,-8.4e-4 -0.118365,-0.132215 -0.234631,-0.262751 -0.358451,-0.386991 -0.0088,-0.01007 -0.0088,-0.01847 -0.01805,-0.02938 -0.664855,-0.736629 -0.57671,-1.663815 -0.242185,-2.618284 0.333686,-0.954469 0.517109,-1.467801 -0.130956,-1.759514 -0.645547,-0.290034 -0.209026,-0.0936 -1.253737,-0.563279 -0.0092,-0.0025 -0.01595,-0.0059 -0.02602,-0.01007 0,-0.0021 -0.0017,-0.0017 -0.0033,-0.0017 -1.048069,-0.470938 -0.610289,-0.271146 -1.255416,-0.561181 -0.651003,-0.291293 -0.912076,0.188879 -1.401063,1.073253 -0.483531,0.880597 -1.114806,1.56224 -2.099496,1.56224 -0.175028,-0.01091 -0.352575,-0.01595 -0.53138,-0.01553 -0.01847,-0.0025 -0.02434,-0.01091 -0.04365,-0.01133 -0.993924,-0.05162 -1.586585,-0.768109 -2.024365,-1.680185 -0.438199,-0.912076 -0.672409,-1.403162 -1.337263,-1.151743 -0.668213,0.255617 -0.196854,0.07597 -1.314179,0.501999 -1.069055,0.407559 -0.620782,0.237568 -1.281859,0.487728 z m 10.551625,9.972395 c 0.972098,2.54567 -0.305565,5.396486 -2.851235,6.367323 -2.543991,0.970419 -5.395226,-0.305984 -6.365645,-2.850394 -0.971678,-2.54609 0.305145,-5.397325 2.849556,-6.368164 2.54609,-0.970418 5.397324,0.305145 6.367324,2.851235 z"
         id="path116"
         style="fill:#6aa3ae;fill-opacity:1" />
    </g>
  </g>
</svg>
