<?xml version="1.0" encoding="UTF-8" standalone="no"?>
<svg
   xmlns:dc="http://purl.org/dc/elements/1.1/"
   xmlns:cc="http://creativecommons.org/ns#"
   xmlns:rdf="http://www.w3.org/1999/02/22-rdf-syntax-ns#"
   xmlns:svg="http://www.w3.org/2000/svg"
   xmlns="http://www.w3.org/2000/svg"
   xmlns:sodipodi="http://sodipodi.sourceforge.net/DTD/sodipodi-0.dtd"
   xmlns:inkscape="http://www.inkscape.org/namespaces/inkscape"
   version="1.1"
   width="32"
   height="32"
   data-icon="people"
   data-container-transform="translate(0 8)"
   viewBox="0 0 32 32"
   id="svg2"
   inkscape:version="0.91 r13725"
   sodipodi:docname="date.svg"
   inkscape:export-filename="inputs.png"
   inkscape:export-xdpi="56.25"
   inkscape:export-ydpi="56.25">
  <metadata
     id="metadata10">
    <rdf:RDF>
      <cc:Work
         rdf:about="">
        <dc:format>image/svg+xml</dc:format>
        <dc:type
           rdf:resource="http://purl.org/dc/dcmitype/StillImage" />
        <dc:title></dc:title>
      </cc:Work>
    </rdf:RDF>
  </metadata>
  <defs
     id="defs8" />
  <sodipodi:namedview
     pagecolor="#ffffff"
     bordercolor="#666666"
     borderopacity="1"
     objecttolerance="10"
     gridtolerance="10"
     guidetolerance="10"
     inkscape:pageopacity="0"
     inkscape:pageshadow="2"
     inkscape:window-width="1920"
     inkscape:window-height="1057"
     id="namedview6"
     showgrid="false"
     inkscape:zoom="11.313709"
     inkscape:cx="20.315547"
     inkscape:cy="15.293332"
     inkscape:window-x="-8"
     inkscape:window-y="1072"
     inkscape:window-maximized="1"
     inkscape:current-layer="g4"
     showguides="false" />
  <g
     transform="matrix(0.32874094,0,0,0.32874094,-0.437047,-0.4370464)"
     id="g4"
     style="fill:#6aa3ae;fill-opacity:1">
    <path
       style="opacity:1;fill:#6aa3ae;fill-opacity:1;stroke:none"
       d="M 8.71875 4.5957031 L 8.71875 7.8242188 C 8.71875 8.7458275 8.1667633 9.5306183 7.3769531 9.8789062 L 15.085938 9.8789062 C 14.296127 9.5306183 13.746094 8.7458275 13.746094 7.8242188 L 13.746094 4.5957031 L 8.71875 4.5957031 z M 18.248047 4.5957031 L 18.248047 7.8242188 C 18.248047 8.7457745 17.69794 9.5305878 16.908203 9.8789062 L 24.613281 9.8789062 C 23.824077 9.5306183 23.275391 8.7458275 23.275391 7.8242188 L 23.275391 4.5957031 L 18.248047 4.5957031 z M 27.775391 4.609375 L 27.775391 7.8242188 C 27.775391 8.7458275 27.223404 9.5306183 26.433594 9.8789062 L 28.980469 9.8789062 L 28.980469 5.9492188 C 28.980469 5.2496973 28.454737 4.6824566 27.775391 4.609375 z M 4.21875 4.6113281 C 3.5423285 4.6871364 3.0195313 5.2517658 3.0195312 5.9492188 L 3.0195312 9.8789062 L 5.5566406 9.8789062 C 4.7674364 9.5306183 4.21875 8.7458275 4.21875 7.8242188 L 4.21875 4.6113281 z M 3.0195312 11.193359 L 3.0195312 29.966797 C 3.0195312 30.716155 3.6197822 31.320313 4.3691406 31.320312 L 27.630859 31.320312 C 28.380218 31.320312 28.980469 30.716155 28.980469 29.966797 L 28.980469 11.193359 L 3.0195312 11.193359 z M 10.490234 14.476562 C 11.921514 14.476562 12.9882 15.030263 13.6875 16.134766 C 14.386801 17.239268 14.734374 18.909382 14.734375 21.144531 C 14.734375 23.458104 14.359007 25.208973 13.607422 26.398438 C 12.862374 27.581366 11.771799 28.173828 10.333984 28.173828 C 8.9223119 28.173828 7.8704994 27.616898 7.1777344 26.505859 C 6.4915044 25.394821 6.1464844 23.708556 6.1464844 21.447266 C 6.1464844 20.24473 6.2537539 19.205838 6.4628906 18.330078 C 6.6785628 17.454319 6.974456 16.732653 7.3535156 16.164062 C 7.7391117 15.588936 8.1984622 15.163164 8.734375 14.888672 C 9.2702878 14.61418 9.8562897 14.476563 10.490234 14.476562 z M 21.636719 14.476562 C 23.009178 14.476562 24.05453 14.95274 24.773438 15.900391 C 25.492345 16.848041 25.853516 18.208667 25.853516 19.986328 C 25.853516 21.613673 25.587971 23.026656 25.058594 24.222656 C 24.529217 25.412122 23.788171 26.34119 22.833984 27.007812 C 21.879799 27.667901 20.76466 28.056189 19.490234 28.173828 L 19.087891 27.634766 L 19.087891 27.152344 C 20.002863 27.152344 20.794314 26.952077 21.460938 26.546875 C 22.134096 26.141673 22.672923 25.542752 23.078125 24.751953 C 23.489863 23.95462 23.765097 22.910545 23.902344 21.623047 L 23.802734 21.585938 C 23.253751 21.978069 22.711694 22.26427 22.175781 22.447266 C 21.646404 22.63026 21.072047 22.722656 20.451172 22.722656 C 19.712658 22.722656 19.081435 22.562429 18.558594 22.242188 C 18.042287 21.915412 17.652046 21.460568 17.390625 20.878906 C 17.129204 20.29071 17 19.604575 17 18.820312 C 17 18.232115 17.098857 17.677138 17.294922 17.154297 C 17.490988 16.62492 17.78042 16.163616 18.166016 15.771484 C 18.551612 15.372819 19.032296 15.058821 19.607422 14.830078 C 20.189083 14.594799 20.865528 14.476563 21.636719 14.476562 z M 10.441406 15.310547 C 9.9904552 15.310547 9.6099037 15.444935 9.3027344 15.712891 C 9.0021008 15.980847 8.757889 16.365905 8.5683594 16.869141 C 8.3853644 17.372376 8.2561608 17.987448 8.1777344 18.712891 C 8.0993083 19.431798 8.0605472 20.245859 8.0605469 21.154297 C 8.0605469 23.284877 8.2543533 24.849675 8.6464844 25.849609 C 9.0451515 26.843009 9.660224 27.339844 10.490234 27.339844 C 11.281033 27.339844 11.867033 26.87208 12.246094 25.9375 C 12.63169 24.996385 12.824219 23.543364 12.824219 21.576172 C 12.824219 20.073002 12.725362 18.855778 12.529297 17.927734 C 12.333231 16.993155 12.05995 16.323171 11.707031 15.917969 C 11.36065 15.512767 10.938106 15.310547 10.441406 15.310547 z M 21.529297 15.310547 C 21.039133 15.310547 20.625003 15.39453 20.285156 15.564453 C 19.945309 15.734377 19.666844 15.970851 19.451172 16.271484 C 19.242034 16.565584 19.088267 16.91511 18.990234 17.320312 C 18.892202 17.71898 18.84375 18.154443 18.84375 18.625 C 18.84375 19.598793 19.042739 20.352759 19.441406 20.888672 C 19.840073 21.424584 20.401511 21.693359 21.126953 21.693359 C 21.375303 21.693359 21.611776 21.673981 21.833984 21.634766 C 22.062728 21.589016 22.282375 21.525692 22.498047 21.447266 C 22.713719 21.362305 22.924352 21.256988 23.126953 21.132812 C 23.336091 21.002101 23.52216 20.866437 23.685547 20.722656 C 23.744367 20.670373 23.798002 20.602539 23.84375 20.517578 C 23.889499 20.432616 23.925029 20.318887 23.951172 20.181641 C 23.977317 20.044395 23.988281 19.831208 23.988281 19.537109 C 23.988281 18.641742 23.897838 17.876133 23.714844 17.242188 C 23.538384 16.601706 23.265103 16.121022 22.892578 15.800781 C 22.526589 15.474005 22.071745 15.310547 21.529297 15.310547 z "
       transform="matrix(3.0419089,0,0,3.0419089,1.3294572,1.3294553)"
       id="rect19501" />
    <rect
       ry="3.3263805"
       y="4.9059296"
       x="75.600464"
       height="23.809877"
       width="6.652761"
       id="rect19511"
       style="opacity:1;fill:#6aa3ae;fill-opacity:1;stroke:none" />
    <rect
       style="opacity:1;fill:#6aa3ae;fill-opacity:1;stroke:none"
       id="rect19553"
       width="6.652761"
       height="23.809877"
       x="17.565025"
       y="4.9059296"
       ry="3.3263805" />
    <rect
       ry="3.3967166"
       y="4.6542001"
       x="46.591377"
       height="24.313335"
       width="6.7934332"
       id="rect19557"
       style="opacity:1;fill:#6aa3ae;fill-opacity:1;stroke:none" />
  </g>
</svg>
