<?xml version="1.0" encoding="UTF-8" standalone="no"?>
<!-- Created with Inkscape (http://www.inkscape.org/) -->

<svg
   xmlns:dc="http://purl.org/dc/elements/1.1/"
   xmlns:cc="http://creativecommons.org/ns#"
   xmlns:rdf="http://www.w3.org/1999/02/22-rdf-syntax-ns#"
   xmlns:svg="http://www.w3.org/2000/svg"
   xmlns="http://www.w3.org/2000/svg"
   xmlns:sodipodi="http://sodipodi.sourceforge.net/DTD/sodipodi-0.dtd"
   xmlns:inkscape="http://www.inkscape.org/namespaces/inkscape"
   width="64px"
   height="64px"
   id="svg4864"
   version="1.1"
   inkscape:version="0.91 r13725"
   sodipodi:docname="run.svg"
   inkscape:export-filename="C:\Users\wilkie\occam\object_large.png"
   inkscape:export-xdpi="135"
   inkscape:export-ydpi="135">
  <defs
     id="defs4866" />
  <sodipodi:namedview
     id="base"
     pagecolor="#ffffff"
     bordercolor="#666666"
     borderopacity="1.0"
     inkscape:pageopacity="0.0"
     inkscape:pageshadow="2"
     inkscape:zoom="8"
     inkscape:cx="86.464202"
     inkscape:cy="39.418208"
     inkscape:current-layer="layer1"
     showgrid="true"
     inkscape:document-units="px"
     inkscape:grid-bbox="true"
     inkscape:window-width="2560"
     inkscape:window-height="1417"
     inkscape:window-x="1912"
     inkscape:window-y="-8"
     inkscape:window-maximized="1" />
  <metadata
     id="metadata4869">
    <rdf:RDF>
      <cc:Work
         rdf:about="">
        <dc:format>image/svg+xml</dc:format>
        <dc:type
           rdf:resource="http://purl.org/dc/dcmitype/StillImage" />
        <dc:title></dc:title>
      </cc:Work>
    </rdf:RDF>
  </metadata>
  <g
     id="layer1"
     inkscape:label="Layer 1"
     inkscape:groupmode="layer">
    <path
       style="opacity:1;fill:#6aa3ae;fill-opacity:1;stroke:none"
       d="m 12.914691,13.666362 c -1.174725,0 -2.122038,0.94523 -2.122038,2.119955 0,1.174725 0.947313,2.122039 2.122038,2.122039 l 16.441108,0 c 2.828601,-1.414173 5.657457,-2.82784 8.486068,-4.241994 z M 2.3577052,23.386195 c -1.1747252,0 -2.11995546,0.94523 -2.11995546,2.119955 0,1.174725 0.94523026,2.122038 2.11995546,2.122038 l 19.8084618,0 0.47121,-4.148283 c -0.06192,-0.03096 -0.12342,-0.06275 -0.18534,-0.09371 z m 0,12.794701 c -1.1747252,0 -2.11995546,0.94523 -2.11995546,2.119955 0,1.174725 0.94523026,2.122038 2.11995546,2.122038 l 20.2796718,0 -0.47121,-4.241993 z m 10.5569858,9.719833 c -1.174725,0 -2.122038,0.945229 -2.122038,2.119955 0,1.174725 0.947313,2.122038 2.122038,2.122038 l 23.236209,0 c -2.836341,-1.413966 -5.672425,-2.828448 -8.508975,-4.241993 z"
       id="rect5381"
       inkscape:connector-curvature="0"
       sodipodi:nodetypes="sssccsssscccssssccssssccs" />
    <rect
       style="fill:#6aa3ae;fill-opacity:1;stroke:none"
       id="rect4892"
       width="19.768869"
       height="19.768869"
       x="-9.0605822"
       y="39.511589"
       transform="matrix(0.89442719,-0.4472136,0.89442719,0.4472136,0,0)" />
    <rect
       style="fill:#6aa3ae;fill-opacity:1;stroke:none"
       id="rect4907"
       width="19.979414"
       height="19.108288"
       x="51.264484"
       y="54.767307"
       transform="matrix(0.8949854,-0.44609543,0,1,0,0)" />
    <rect
       transform="matrix(-0.8949854,-0.44609543,0,1,0,0)"
       y="10.035322"
       x="-49.261124"
       height="19.108288"
       width="19.979414"
       id="rect4938"
       style="fill:#6aa3ae;fill-opacity:1;stroke:none" />
  </g>
</svg>
