<?xml version="1.0" encoding="UTF-8" standalone="no"?>
<!-- Created with Inkscape (http://www.inkscape.org/) -->

<svg
   width="64px"
   height="64px"
   id="svg4864"
   version="1.1"
   inkscape:version="1.1.1 (3bf5ae0d25, 2021-09-20)"
   sodipodi:docname="network.svg"
   inkscape:export-filename="C:\Users\wilkie\occam\object_large.png"
   inkscape:export-xdpi="135"
   inkscape:export-ydpi="135"
   xmlns:inkscape="http://www.inkscape.org/namespaces/inkscape"
   xmlns:sodipodi="http://sodipodi.sourceforge.net/DTD/sodipodi-0.dtd"
   xmlns="http://www.w3.org/2000/svg"
   xmlns:svg="http://www.w3.org/2000/svg"
   xmlns:rdf="http://www.w3.org/1999/02/22-rdf-syntax-ns#"
   xmlns:cc="http://creativecommons.org/ns#"
   xmlns:dc="http://purl.org/dc/elements/1.1/">
  <defs
     id="defs4866" />
  <sodipodi:namedview
     id="base"
     pagecolor="#ffffff"
     bordercolor="#666666"
     borderopacity="1.0"
     inkscape:pageopacity="0.0"
     inkscape:pageshadow="2"
     inkscape:zoom="9.2034367"
     inkscape:cx="15.809312"
     inkscape:cy="30.477745"
     inkscape:current-layer="layer1"
     showgrid="true"
     inkscape:document-units="px"
     inkscape:grid-bbox="true"
     inkscape:window-width="1920"
     inkscape:window-height="1051"
     inkscape:window-x="-9"
     inkscape:window-y="-9"
     inkscape:window-maximized="1"
     inkscape:pagecheckerboard="0"
     showguides="false" />
  <metadata
     id="metadata4869">
    <rdf:RDF>
      <cc:Work
         rdf:about="">
        <dc:format>image/svg+xml</dc:format>
        <dc:type
           rdf:resource="http://purl.org/dc/dcmitype/StillImage" />
      </cc:Work>
    </rdf:RDF>
  </metadata>
  <g
     id="layer1"
     inkscape:label="Layer 1"
     inkscape:groupmode="layer">
    <rect
       style="fill:#64c4d9;fill-opacity:1;stroke:none;stroke-width:0.412945"
       id="rect4892"
       width="9.1934452"
       height="9.1934452"
       x="-29.169262"
       y="80.325806"
       transform="matrix(0.89442719,-0.4472136,0.89442719,0.4472136,0,0)" />
    <rect
       style="fill:#2da0b7;fill-opacity:1;stroke:none;stroke-width:0.412945"
       id="rect4907"
       width="9.291358"
       height="8.8862429"
       x="60.812717"
       y="80.828369"
       transform="matrix(0.8949854,-0.44609543,0,1,0,0)" />
    <rect
       transform="matrix(-0.8949854,-0.44609543,0,1,0,0)"
       y="27.039576"
       x="-59.881054"
       height="8.8862429"
       width="9.291358"
       id="rect4938"
       style="fill:#2da0b7;fill-opacity:1;stroke:none;stroke-width:0.412945" />
    <path
       style="color:#000000;fill:#ff0000;stroke-linecap:round;stroke-linejoin:round;-inkscape-stroke:none"
       d="m 48.171875,34.146484 c -3.601194,0.317533 -7.024649,1.886606 -9.632813,4.496094 a 2.250225,2.250225 0 0 0 -0.0039,0.0039 c -3.467219,3.488779 -5.079267,8.419825 -4.34375,13.283203 a 2.25,2.25 0 0 0 2.560547,1.888672 2.25,2.25 0 0 0 1.888672,-2.5625 c -0.522754,-3.456547 0.619544,-6.950658 3.082031,-9.43164 2.473283,-2.47454 5.966746,-3.631095 9.427735,-3.119141 a 2.25,2.25 0 0 0 2.554687,-1.896484 2.25,2.25 0 0 0 -1.896484,-2.554688 C 50.592018,34.073949 49.372273,34.04064 48.171875,34.146484 Z"
       id="path39704" />
    <path
       style="color:#000000;fill:#ff0000;stroke-linecap:round;stroke-linejoin:round;-inkscape-stroke:none"
       d="m 48.746094,19.832031 c -7.516946,0.53761 -14.591008,3.764941 -19.921875,9.091797 a 3.3864286,3.3864286 0 0 0 -0.002,0.002 c -5.328686,5.330114 -8.558699,12.40426 -9.097657,19.921875 a 3.38609,3.38609 0 0 0 3.134766,3.619141 3.38609,3.38609 0 0 0 3.619141,-3.134766 c 0.422627,-5.894993 2.954284,-11.437539 7.132812,-15.617187 4.180237,-4.177092 9.722727,-6.707337 15.617188,-7.128907 a 3.38609,3.38609 0 0 0 3.136718,-3.61914 3.38609,3.38609 0 0 0 -3.61914,-3.134766 z"
       id="circle39786" />
    <path
       style="color:#000000;fill:#ff0000;stroke-linecap:round;stroke-linejoin:round;-inkscape-stroke:none"
       d="M 43.984375,2.0527344 C 33.37413,3.5667327 23.539023,8.4834518 15.958984,16.060547 a 5.3517352,5.3517352 0 0 0 -0.01563,0.01563 C 8.4025162,23.679955 3.5270117,33.524139 2.0507813,44.130859 a 5.3512001,5.3512001 0 0 0 4.5624999,6.039063 5.3512001,5.3512001 0 0 0 6.0371098,-4.5625 C 13.807382,37.294435 17.62493,29.582078 23.533203,23.621094 29.475592,17.684399 37.180338,13.83503 45.496094,12.648438 A 5.3512001,5.3512001 0 0 0 50.037109,6.5957031 5.3512001,5.3512001 0 0 0 43.984375,2.0527344 Z"
       id="circle39788" />
  </g>
</svg>
